{
	"credit": "Made with Blockbench",
	"textures": {
		"0": "assemble_guns:item/black_white",
		"particle": "assemble_guns:item/black_white"
	},
	"elements": [
		{
			"from": [7.69324, 6.79465, 4.54529],
			"to": [8.31668, 7.20996, 5.92341],
			"rotation": {"angle": 0, "axis": "y", "origin": [8.07587, 6.79229, 5.32828]},
			"faces": {
				"north": {"uv": [5.75, 12.25, 5.75, 12.25], "texture": "#0"},
				"east": {"uv": [5.75, 12.25, 5.75, 12.25], "texture": "#0"},
				"south": {"uv": [5.75, 12.25, 5.75, 12.25], "texture": "#0"},
				"west": {"uv": [5.75, 12.25, 5.75, 12.25], "texture": "#0"},
				"up": {"uv": [5.75, 12.25, 5.75, 12.25], "texture": "#0"},
				"down": {"uv": [5.75, 12.25, 5.75, 12.25], "texture": "#0"}
			}
		},
		{
			"from": [8.31668, 6.8509, 4.79373],
			"to": [8.33543, 6.97559, 5.5156],
			"rotation": {"angle": 0, "axis": "y", "origin": [8.07587, 6.79229, 5.32828]},
			"faces": {
				"north": {"uv": [5.75, 12.25, 5.75, 12.25], "texture": "#0"},
				"east": {"uv": [5.75, 12.25, 5.75, 12.25], "texture": "#0"},
				"south": {"uv": [5.75, 12.25, 5.75, 12.25], "texture": "#0"},
				"west": {"uv": [5.75, 12.25, 5.75, 12.25], "texture": "#0"},
				"up": {"uv": [5.75, 12.25, 5.75, 12.25], "texture": "#0"},
				"down": {"uv": [5.75, 12.25, 5.75, 12.25], "texture": "#0"}
			}
		},
		{
			"from": [8.31668, 6.87434, 5.46404],
			"to": [8.36825, 6.99902, 5.58591],
			"rotation": {"angle": 0, "axis": "y", "origin": [8.07587, 6.79229, 5.32828]},
			"faces": {
				"north": {"uv": [5.75, 12.25, 5.75, 12.25], "texture": "#0"},
				"east": {"uv": [5.75, 12.25, 5.75, 12.25], "texture": "#0"},
				"south": {"uv": [5.75, 12.25, 5.75, 12.25], "texture": "#0"},
				"west": {"uv": [5.75, 12.25, 5.75, 12.25], "texture": "#0"},
				"up": {"uv": [5.75, 12.25, 5.75, 12.25], "texture": "#0"},
				"down": {"uv": [5.75, 12.25, 5.75, 12.25], "texture": "#0"}
			}
		},
		{
			"from": [8.03163, 6.62067, 4.54529],
			"to": [8.24763, 6.83667, 5.56716],
			"rotation": {"angle": 45, "axis": "z", "origin": [8.07587, 6.79229, 5.32828]},
			"faces": {
				"north": {"uv": [5.75, 12.25, 5.75, 12.25], "texture": "#0"},
				"east": {"uv": [5.75, 12.25, 5.75, 12.25], "texture": "#0"},
				"south": {"uv": [5.75, 12.25, 5.75, 12.25], "texture": "#0"},
				"west": {"uv": [5.75, 12.25, 5.75, 12.25], "texture": "#0"},
				"up": {"uv": [5.75, 12.25, 5.75, 12.25], "texture": "#0"},
				"down": {"uv": [5.75, 12.25, 5.75, 12.25], "texture": "#0"}
			}
		},
		{
			"from": [7.80624, 6.84606, 4.54529],
			"to": [8.02224, 7.06206, 5.92341],
			"rotation": {"angle": 45, "axis": "z", "origin": [8.07587, 6.79229, 5.32828]},
			"faces": {
				"north": {"uv": [5.75, 12.25, 5.75, 12.25], "texture": "#0"},
				"east": {"uv": [5.75, 12.25, 5.75, 12.25], "texture": "#0"},
				"south": {"uv": [5.75, 12.25, 5.75, 12.25], "texture": "#0"},
				"west": {"uv": [5.75, 12.25, 5.75, 12.25], "texture": "#0"},
				"up": {"uv": [5.75, 12.25, 5.75, 12.25], "texture": "#0"},
				"down": {"uv": [5.75, 12.25, 5.75, 12.25], "texture": "#0"}
			}
		},
		{
			"from": [7.8517, 6.63752, 4.54529],
			"to": [8.16614, 6.90039, 5.56716],
			"rotation": {"angle": 0, "axis": "y", "origin": [8.07587, 6.79229, 5.32828]},
			"faces": {
				"north": {"uv": [5.75, 12.25, 5.75, 12.25], "texture": "#0"},
				"east": {"uv": [5.75, 12.25, 5.75, 12.25], "texture": "#0"},
				"south": {"uv": [5.75, 12.25, 5.75, 12.25], "texture": "#0"},
				"west": {"uv": [5.75, 12.25, 5.75, 12.25], "texture": "#0"},
				"up": {"uv": [5.75, 12.25, 5.75, 12.25], "texture": "#0"},
				"down": {"uv": [5.75, 12.25, 5.75, 12.25], "texture": "#0"}
			}
		},
		{
			"from": [7.84701, 6.59533, 5.56716],
			"to": [8.26457, 6.90039, 5.92341],
			"rotation": {"angle": 0, "axis": "y", "origin": [8.07587, 6.79229, 5.32828]},
			"faces": {
				"north": {"uv": [5.75, 12.25, 5.75, 12.25], "texture": "#0"},
				"east": {"uv": [5.75, 12.25, 5.75, 12.25], "texture": "#0"},
				"south": {"uv": [5.75, 12.25, 5.75, 12.25], "texture": "#0"},
				"west": {"uv": [5.75, 12.25, 5.75, 12.25], "texture": "#0"},
				"up": {"uv": [5.75, 12.25, 5.75, 12.25], "texture": "#0"},
				"down": {"uv": [5.75, 12.25, 5.75, 12.25], "texture": "#0"}
			}
		},
		{
			"from": [7.97826, 6.72658, 5.92341],
			"to": [8.16145, 7.0082, 5.97966],
			"rotation": {"angle": 0, "axis": "y", "origin": [8.07587, 6.79229, 5.32828]},
			"faces": {
				"north": {"uv": [5.75, 12.25, 5.75, 12.25], "texture": "#0"},
				"east": {"uv": [5.75, 12.25, 5.75, 12.25], "texture": "#0"},
				"south": {"uv": [5.75, 12.25, 5.75, 12.25], "texture": "#0"},
				"west": {"uv": [5.75, 12.25, 5.75, 12.25], "texture": "#0"},
				"up": {"uv": [5.75, 12.25, 5.75, 12.25], "texture": "#0"},
				"down": {"uv": [5.75, 12.25, 5.75, 12.25], "texture": "#0"}
			}
		},
		{
			"from": [8.2642, 6.65158, 5.56716],
			"to": [8.31614, 6.90039, 5.92341],
			"rotation": {"angle": 0, "axis": "y", "origin": [8.07587, 6.79229, 5.32828]},
			"faces": {
				"north": {"uv": [5.75, 12.25, 5.75, 12.25], "texture": "#0"},
				"east": {"uv": [5.75, 12.25, 5.75, 12.25], "texture": "#0"},
				"south": {"uv": [5.75, 12.25, 5.75, 12.25], "texture": "#0"},
				"west": {"uv": [5.75, 12.25, 5.75, 12.25], "texture": "#0"},
				"up": {"uv": [5.75, 12.25, 5.75, 12.25], "texture": "#0"},
				"down": {"uv": [5.75, 12.25, 5.75, 12.25], "texture": "#0"}
			}
		},
		{
			"from": [8.29583, 6.78596, 5.56716],
			"to": [8.34777, 6.86133, 5.92341],
			"rotation": {"angle": -45, "axis": "z", "origin": [8.07587, 6.79229, 5.32828]},
			"faces": {
				"north": {"uv": [5.75, 12.25, 5.75, 12.25], "texture": "#0"},
				"east": {"uv": [5.75, 12.25, 5.75, 12.25], "texture": "#0"},
				"south": {"uv": [5.75, 12.25, 5.75, 12.25], "texture": "#0"},
				"west": {"uv": [5.75, 12.25, 5.75, 12.25], "texture": "#0"},
				"up": {"uv": [5.75, 12.25, 5.75, 12.25], "texture": "#0"},
				"down": {"uv": [5.75, 12.25, 5.75, 12.25], "texture": "#0"}
			}
		},
		{
			"name": "hexadecagon",
			"from": [7.91264, 6.79166, 4.48434],
			"to": [8.05664, 6.8203, 4.54997],
			"rotation": {"angle": 45, "axis": "z", "origin": [8.07587, 6.79229, 5.32828]},
			"faces": {
				"north": {"uv": [0.5, 0, 0.5, 0], "texture": "#0"},
				"east": {"uv": [0.5, 0, 0.5, 0], "texture": "#0"},
				"south": {"uv": [0.5, 0, 0.5, 0], "texture": "#0"},
				"west": {"uv": [0.5, 0, 0.5, 0], "texture": "#0"},
				"up": {"uv": [0.5, 0, 0.5, 0], "texture": "#0"},
				"down": {"uv": [0.5, 0, 0.5, 0], "texture": "#0"}
			}
		},
		{
			"name": "hexadecagon",
			"from": [7.91435, 6.75571, 4.48434],
			"to": [8.05835, 6.78435, 4.54997],
			"rotation": {"angle": 22.5, "axis": "z", "origin": [8.07587, 6.79229, 5.32828]},
			"faces": {
				"north": {"uv": [0.5, 0, 0.5, 0], "texture": "#0"},
				"east": {"uv": [0.5, 0, 0.5, 0], "texture": "#0"},
				"south": {"uv": [0.5, 0, 0.5, 0], "texture": "#0"},
				"west": {"uv": [0.5, 0, 0.5, 0], "texture": "#0"},
				"up": {"uv": [0.5, 0, 0.5, 0], "texture": "#0"},
				"down": {"uv": [0.5, 0, 0.5, 0], "texture": "#0"}
			}
		},
		{
			"name": "hexadecagon",
			"from": [7.92968, 6.72314, 4.48434],
			"to": [8.07368, 6.75178, 4.54997],
			"rotation": {"angle": 0, "axis": "y", "origin": [8.07587, 6.79229, 5.32828]},
			"faces": {
				"north": {"uv": [0.5, 0, 0.5, 0], "texture": "#0"},
				"east": {"uv": [0.5, 0, 0.5, 0], "texture": "#0"},
				"south": {"uv": [0.5, 0, 0.5, 0], "texture": "#0"},
				"west": {"uv": [0.5, 0, 0.5, 0], "texture": "#0"},
				"up": {"uv": [0.5, 0, 0.5, 0], "texture": "#0"},
				"down": {"uv": [0.5, 0, 0.5, 0], "texture": "#0"}
			}
		},
		{
			"name": "hexadecagon",
			"from": [7.95631, 6.69892, 4.48434],
			"to": [8.10031, 6.72757, 4.54997],
			"rotation": {"angle": -22.5, "axis": "z", "origin": [8.07587, 6.79229, 5.32828]},
			"faces": {
				"north": {"uv": [0.5, 0, 0.5, 0], "texture": "#0"},
				"east": {"uv": [0.5, 0, 0.5, 0], "texture": "#0"},
				"south": {"uv": [0.5, 0, 0.5, 0], "texture": "#0"},
				"west": {"uv": [0.5, 0, 0.5, 0], "texture": "#0"},
				"up": {"uv": [0.5, 0, 0.5, 0], "texture": "#0"},
				"down": {"uv": [0.5, 0, 0.5, 0], "texture": "#0"}
			}
		},
		{
			"name": "hexadecagon",
			"from": [7.99019, 6.68674, 4.48434],
			"to": [8.13419, 6.71538, 4.54997],
			"rotation": {"angle": -45, "axis": "z", "origin": [8.07587, 6.79229, 5.32828]},
			"faces": {
				"north": {"uv": [0.5, 0, 0.5, 0], "texture": "#0"},
				"east": {"uv": [0.5, 0, 0.5, 0], "texture": "#0"},
				"south": {"uv": [0.5, 0, 0.5, 0], "texture": "#0"},
				"west": {"uv": [0.5, 0, 0.5, 0], "texture": "#0"},
				"up": {"uv": [0.5, 0, 0.5, 0], "texture": "#0"},
				"down": {"uv": [0.5, 0, 0.5, 0], "texture": "#0"}
			}
		},
		{
			"name": "hexadecagon",
			"from": [7.97202, 6.69803, 4.48434],
			"to": [8.00067, 6.84203, 4.54997],
			"rotation": {"angle": 22.5, "axis": "z", "origin": [8.07587, 6.79229, 5.32828]},
			"faces": {
				"north": {"uv": [0.5, 0, 0.5, 0], "texture": "#0"},
				"east": {"uv": [0.5, 0, 0.5, 0], "texture": "#0"},
				"south": {"uv": [0.5, 0, 0.5, 0], "texture": "#0"},
				"west": {"uv": [0.5, 0, 0.5, 0], "texture": "#0"},
				"up": {"uv": [0.5, 0, 0.5, 0], "texture": "#0"},
				"down": {"uv": [0.5, 0, 0.5, 0], "texture": "#0"}
			}
		},
		{
			"name": "hexadecagon",
			"from": [7.98736, 6.66546, 4.48434],
			"to": [8.016, 6.80946, 4.54997],
			"rotation": {"angle": 0, "axis": "y", "origin": [8.07587, 6.79229, 5.32828]},
			"faces": {
				"north": {"uv": [0.5, 0, 0.5, 0], "texture": "#0"},
				"east": {"uv": [0.5, 0, 0.5, 0], "texture": "#0"},
				"south": {"uv": [0.5, 0, 0.5, 0], "texture": "#0"},
				"west": {"uv": [0.5, 0, 0.5, 0], "texture": "#0"},
				"up": {"uv": [0.5, 0, 0.5, 0], "texture": "#0"},
				"down": {"uv": [0.5, 0, 0.5, 0], "texture": "#0"}
			}
		},
		{
			"name": "hexadecagon",
			"from": [8.01399, 6.64124, 4.48434],
			"to": [8.04264, 6.78524, 4.54997],
			"rotation": {"angle": -22.5, "axis": "z", "origin": [8.07587, 6.79229, 5.32828]},
			"faces": {
				"north": {"uv": [0.5, 0, 0.5, 0], "texture": "#0"},
				"east": {"uv": [0.5, 0, 0.5, 0], "texture": "#0"},
				"south": {"uv": [0.5, 0, 0.5, 0], "texture": "#0"},
				"west": {"uv": [0.5, 0, 0.5, 0], "texture": "#0"},
				"up": {"uv": [0.5, 0, 0.5, 0], "texture": "#0"},
				"down": {"uv": [0.5, 0, 0.5, 0], "texture": "#0"}
			}
		},
		{
			"name": "hexadecagon",
			"from": [8.02648, 6.79453, 5.97966],
			"to": [8.14168, 6.81744, 6.00778],
			"rotation": {"angle": 45, "axis": "z", "origin": [8.07587, 6.79229, 5.32828]},
			"faces": {
				"north": {"uv": [5.75, 9, 5.75, 9], "texture": "#0"},
				"east": {"uv": [5.75, 9, 5.75, 9], "texture": "#0"},
				"south": {"uv": [5.75, 9, 5.75, 9], "texture": "#0"},
				"west": {"uv": [5.75, 9, 5.75, 9], "texture": "#0"},
				"up": {"uv": [5.75, 9, 5.75, 9], "texture": "#0"},
				"down": {"uv": [5.75, 9, 5.75, 9], "texture": "#0"}
			}
		},
		{
			"name": "hexadecagon",
			"from": [8.02061, 6.79662, 5.97966],
			"to": [8.13581, 6.81954, 6.00778],
			"rotation": {"angle": 22.5, "axis": "z", "origin": [8.07587, 6.79229, 5.32828]},
			"faces": {
				"north": {"uv": [5.75, 9, 5.75, 9], "texture": "#0"},
				"east": {"uv": [5.75, 9, 5.75, 9], "texture": "#0"},
				"south": {"uv": [5.75, 9, 5.75, 9], "texture": "#0"},
				"west": {"uv": [5.75, 9, 5.75, 9], "texture": "#0"},
				"up": {"uv": [5.75, 9, 5.75, 9], "texture": "#0"},
				"down": {"uv": [5.75, 9, 5.75, 9], "texture": "#0"}
			}
		},
		{
			"name": "hexadecagon",
			"from": [8.01439, 6.79632, 5.97966],
			"to": [8.12959, 6.81923, 6.00778],
			"rotation": {"angle": 0, "axis": "y", "origin": [8.07587, 6.79229, 5.32828]},
			"faces": {
				"north": {"uv": [5.75, 9, 5.75, 9], "texture": "#0"},
				"east": {"uv": [5.75, 9, 5.75, 9], "texture": "#0"},
				"south": {"uv": [5.75, 9, 5.75, 9], "texture": "#0"},
				"west": {"uv": [5.75, 9, 5.75, 9], "texture": "#0"},
				"up": {"uv": [5.75, 9, 5.75, 9], "texture": "#0"},
				"down": {"uv": [5.75, 9, 5.75, 9], "texture": "#0"}
			}
		},
		{
			"name": "hexadecagon",
			"from": [8.00877, 6.79365, 5.97966],
			"to": [8.12397, 6.81657, 6.00778],
			"rotation": {"angle": -22.5, "axis": "z", "origin": [8.07587, 6.79229, 5.32828]},
			"faces": {
				"north": {"uv": [5.75, 9, 5.75, 9], "texture": "#0"},
				"east": {"uv": [5.75, 9, 5.75, 9], "texture": "#0"},
				"south": {"uv": [5.75, 9, 5.75, 9], "texture": "#0"},
				"west": {"uv": [5.75, 9, 5.75, 9], "texture": "#0"},
				"up": {"uv": [5.75, 9, 5.75, 9], "texture": "#0"},
				"down": {"uv": [5.75, 9, 5.75, 9], "texture": "#0"}
			}
		},
		{
			"name": "hexadecagon",
			"from": [8.00459, 6.78904, 5.97966],
			"to": [8.11979, 6.81196, 6.00778],
			"rotation": {"angle": -45, "axis": "z", "origin": [8.07587, 6.79229, 5.32828]},
			"faces": {
				"north": {"uv": [5.75, 9, 5.75, 9], "texture": "#0"},
				"east": {"uv": [5.75, 9, 5.75, 9], "texture": "#0"},
				"south": {"uv": [5.75, 9, 5.75, 9], "texture": "#0"},
				"west": {"uv": [5.75, 9, 5.75, 9], "texture": "#0"},
				"up": {"uv": [5.75, 9, 5.75, 9], "texture": "#0"},
				"down": {"uv": [5.75, 9, 5.75, 9], "texture": "#0"}
			}
		},
		{
			"name": "hexadecagon",
			"from": [8.06676, 6.75048, 5.97966],
			"to": [8.08967, 6.86568, 6.00778],
			"rotation": {"angle": 22.5, "axis": "z", "origin": [8.07587, 6.79229, 5.32828]},
			"faces": {
				"north": {"uv": [5.75, 9, 5.75, 9], "texture": "#0"},
				"east": {"uv": [5.75, 9, 5.75, 9], "texture": "#0"},
				"south": {"uv": [5.75, 9, 5.75, 9], "texture": "#0"},
				"west": {"uv": [5.75, 9, 5.75, 9], "texture": "#0"},
				"up": {"uv": [5.75, 9, 5.75, 9], "texture": "#0"},
				"down": {"uv": [5.75, 9, 5.75, 9], "texture": "#0"}
			}
		},
		{
			"name": "hexadecagon",
			"from": [8.06054, 6.75017, 5.97966],
			"to": [8.08345, 6.86537, 6.00778],
			"rotation": {"angle": 0, "axis": "y", "origin": [8.07587, 6.79229, 5.32828]},
			"faces": {
				"north": {"uv": [5.75, 9, 5.75, 9], "texture": "#0"},
				"east": {"uv": [5.75, 9, 5.75, 9], "texture": "#0"},
				"south": {"uv": [5.75, 9, 5.75, 9], "texture": "#0"},
				"west": {"uv": [5.75, 9, 5.75, 9], "texture": "#0"},
				"up": {"uv": [5.75, 9, 5.75, 9], "texture": "#0"},
				"down": {"uv": [5.75, 9, 5.75, 9], "texture": "#0"}
			}
		},
		{
			"name": "hexadecagon",
			"from": [8.05491, 6.74751, 5.97966],
			"to": [8.07782, 6.86271, 6.00778],
			"rotation": {"angle": -22.5, "axis": "z", "origin": [8.07587, 6.79229, 5.32828]},
			"faces": {
				"north": {"uv": [5.75, 9, 5.75, 9], "texture": "#0"},
				"east": {"uv": [5.75, 9, 5.75, 9], "texture": "#0"},
				"south": {"uv": [5.75, 9, 5.75, 9], "texture": "#0"},
				"west": {"uv": [5.75, 9, 5.75, 9], "texture": "#0"},
				"up": {"uv": [5.75, 9, 5.75, 9], "texture": "#0"},
				"down": {"uv": [5.75, 9, 5.75, 9], "texture": "#0"}
			}
		}
	],
	"groups": [
		{
			"name": "laser_bottom_blue",
			"origin": [8, 8, 8],
			"color": 6,
			"children": [
				{
					"name": "group",
					"origin": [7.31132, 7.78448, 5.215],
					"color": 0,
					"children": [0, 1, 2, 3, 4, 5, 6, 7, 8, 9]
				},
				{
					"name": "hexadecagon",
					"origin": [8, 8, 8],
					"color": 0,
					"children": [10, 11, 12, 13, 14, 15, 16, 17]
				},
				{
					"name": "hexadecagon",
					"origin": [8, 8, 8],
					"color": 0,
					"children": [18, 19, 20, 21, 22, 23, 24, 25]
				}
			]
		}
	]
}