{
	"credit": "Made with Blockbench",
	"textures": {
		"0": "assemble_guns:item/black_white",
		"particle": "assemble_guns:item/black_white"
	},
	"elements": [
		{
			"from": [7.31367, 7.40185, 4.54529],
			"to": [7.72899, 8.02529, 5.92341],
			"rotation": {"angle": 0, "axis": "y", "origin": [7.31132, 7.78448, 5.32828]},
			"faces": {
				"north": {"uv": [5.75, 12.25, 5.75, 12.25], "texture": "#0"},
				"east": {"uv": [5.75, 12.25, 5.75, 12.25], "texture": "#0"},
				"south": {"uv": [5.75, 12.25, 5.75, 12.25], "texture": "#0"},
				"west": {"uv": [5.75, 12.25, 5.75, 12.25], "texture": "#0"},
				"up": {"uv": [5.75, 12.25, 5.75, 12.25], "texture": "#0"},
				"down": {"uv": [5.75, 12.25, 5.75, 12.25], "texture": "#0"}
			}
		},
		{
			"from": [7.36992, 8.02529, 4.79373],
			"to": [7.49461, 8.04404, 5.5156],
			"rotation": {"angle": 0, "axis": "y", "origin": [7.31132, 7.78448, 5.32828]},
			"faces": {
				"north": {"uv": [5.75, 12.25, 5.75, 12.25], "texture": "#0"},
				"east": {"uv": [5.75, 12.25, 5.75, 12.25], "texture": "#0"},
				"south": {"uv": [5.75, 12.25, 5.75, 12.25], "texture": "#0"},
				"west": {"uv": [5.75, 12.25, 5.75, 12.25], "texture": "#0"},
				"up": {"uv": [5.75, 12.25, 5.75, 12.25], "texture": "#0"},
				"down": {"uv": [5.75, 12.25, 5.75, 12.25], "texture": "#0"}
			}
		},
		{
			"from": [7.39336, 8.02529, 5.46404],
			"to": [7.51805, 8.07686, 5.58591],
			"rotation": {"angle": 0, "axis": "y", "origin": [7.31132, 7.78448, 5.32828]},
			"faces": {
				"north": {"uv": [5.75, 12.25, 5.75, 12.25], "texture": "#0"},
				"east": {"uv": [5.75, 12.25, 5.75, 12.25], "texture": "#0"},
				"south": {"uv": [5.75, 12.25, 5.75, 12.25], "texture": "#0"},
				"west": {"uv": [5.75, 12.25, 5.75, 12.25], "texture": "#0"},
				"up": {"uv": [5.75, 12.25, 5.75, 12.25], "texture": "#0"},
				"down": {"uv": [5.75, 12.25, 5.75, 12.25], "texture": "#0"}
			}
		},
		{
			"from": [7.1397, 7.74024, 4.54529],
			"to": [7.3557, 7.95624, 5.56716],
			"rotation": {"angle": -45, "axis": "z", "origin": [7.31132, 7.78448, 5.32828]},
			"faces": {
				"north": {"uv": [5.75, 12.25, 5.75, 12.25], "texture": "#0"},
				"east": {"uv": [5.75, 12.25, 5.75, 12.25], "texture": "#0"},
				"south": {"uv": [5.75, 12.25, 5.75, 12.25], "texture": "#0"},
				"west": {"uv": [5.75, 12.25, 5.75, 12.25], "texture": "#0"},
				"up": {"uv": [5.75, 12.25, 5.75, 12.25], "texture": "#0"},
				"down": {"uv": [5.75, 12.25, 5.75, 12.25], "texture": "#0"}
			}
		},
		{
			"from": [7.36509, 7.51485, 4.54529],
			"to": [7.58109, 7.73085, 5.92341],
			"rotation": {"angle": -45, "axis": "z", "origin": [7.31132, 7.78448, 5.32828]},
			"faces": {
				"north": {"uv": [5.75, 12.25, 5.75, 12.25], "texture": "#0"},
				"east": {"uv": [5.75, 12.25, 5.75, 12.25], "texture": "#0"},
				"south": {"uv": [5.75, 12.25, 5.75, 12.25], "texture": "#0"},
				"west": {"uv": [5.75, 12.25, 5.75, 12.25], "texture": "#0"},
				"up": {"uv": [5.75, 12.25, 5.75, 12.25], "texture": "#0"},
				"down": {"uv": [5.75, 12.25, 5.75, 12.25], "texture": "#0"}
			}
		},
		{
			"from": [7.15654, 7.56031, 4.54529],
			"to": [7.41942, 7.87474, 5.56716],
			"rotation": {"angle": 0, "axis": "y", "origin": [7.31132, 7.78448, 5.32828]},
			"faces": {
				"north": {"uv": [5.75, 12.25, 5.75, 12.25], "texture": "#0"},
				"east": {"uv": [5.75, 12.25, 5.75, 12.25], "texture": "#0"},
				"south": {"uv": [5.75, 12.25, 5.75, 12.25], "texture": "#0"},
				"west": {"uv": [5.75, 12.25, 5.75, 12.25], "texture": "#0"},
				"up": {"uv": [5.75, 12.25, 5.75, 12.25], "texture": "#0"},
				"down": {"uv": [5.75, 12.25, 5.75, 12.25], "texture": "#0"}
			}
		},
		{
			"from": [7.11435, 7.55562, 5.56716],
			"to": [7.41942, 7.97318, 5.92341],
			"rotation": {"angle": 0, "axis": "y", "origin": [7.31132, 7.78448, 5.32828]},
			"faces": {
				"north": {"uv": [5.75, 12.25, 5.75, 12.25], "texture": "#0"},
				"east": {"uv": [5.75, 12.25, 5.75, 12.25], "texture": "#0"},
				"south": {"uv": [5.75, 12.25, 5.75, 12.25], "texture": "#0"},
				"west": {"uv": [5.75, 12.25, 5.75, 12.25], "texture": "#0"},
				"up": {"uv": [5.75, 12.25, 5.75, 12.25], "texture": "#0"},
				"down": {"uv": [5.75, 12.25, 5.75, 12.25], "texture": "#0"}
			}
		},
		{
			"from": [7.2456, 7.68687, 5.92341],
			"to": [7.52723, 7.87006, 5.97966],
			"rotation": {"angle": 0, "axis": "y", "origin": [7.31132, 7.78448, 5.32828]},
			"faces": {
				"north": {"uv": [5.75, 12.25, 5.75, 12.25], "texture": "#0"},
				"east": {"uv": [5.75, 12.25, 5.75, 12.25], "texture": "#0"},
				"south": {"uv": [5.75, 12.25, 5.75, 12.25], "texture": "#0"},
				"west": {"uv": [5.75, 12.25, 5.75, 12.25], "texture": "#0"},
				"up": {"uv": [5.75, 12.25, 5.75, 12.25], "texture": "#0"},
				"down": {"uv": [5.75, 12.25, 5.75, 12.25], "texture": "#0"}
			}
		},
		{
			"from": [7.1706, 7.97281, 5.56716],
			"to": [7.41942, 8.02474, 5.92341],
			"rotation": {"angle": 0, "axis": "y", "origin": [7.31132, 7.78448, 5.32828]},
			"faces": {
				"north": {"uv": [5.75, 12.25, 5.75, 12.25], "texture": "#0"},
				"east": {"uv": [5.75, 12.25, 5.75, 12.25], "texture": "#0"},
				"south": {"uv": [5.75, 12.25, 5.75, 12.25], "texture": "#0"},
				"west": {"uv": [5.75, 12.25, 5.75, 12.25], "texture": "#0"},
				"up": {"uv": [5.75, 12.25, 5.75, 12.25], "texture": "#0"},
				"down": {"uv": [5.75, 12.25, 5.75, 12.25], "texture": "#0"}
			}
		},
		{
			"from": [7.30498, 8.00444, 5.56716],
			"to": [7.38036, 8.05638, 5.92341],
			"rotation": {"angle": 45, "axis": "z", "origin": [7.31132, 7.78448, 5.32828]},
			"faces": {
				"north": {"uv": [5.75, 12.25, 5.75, 12.25], "texture": "#0"},
				"east": {"uv": [5.75, 12.25, 5.75, 12.25], "texture": "#0"},
				"south": {"uv": [5.75, 12.25, 5.75, 12.25], "texture": "#0"},
				"west": {"uv": [5.75, 12.25, 5.75, 12.25], "texture": "#0"},
				"up": {"uv": [5.75, 12.25, 5.75, 12.25], "texture": "#0"},
				"down": {"uv": [5.75, 12.25, 5.75, 12.25], "texture": "#0"}
			}
		},
		{
			"name": "hexadecagon",
			"from": [7.31069, 7.62125, 4.48434],
			"to": [7.33933, 7.76525, 4.54997],
			"rotation": {"angle": -45, "axis": "z", "origin": [7.31132, 7.78448, 5.32828]},
			"faces": {
				"north": {"uv": [0.25, 0, 0.25, 0], "texture": "#0"},
				"east": {"uv": [0.25, 0, 0.25, 0], "texture": "#0"},
				"south": {"uv": [0.25, 0, 0.25, 0], "texture": "#0"},
				"west": {"uv": [0.25, 0, 0.25, 0], "texture": "#0"},
				"up": {"uv": [0.25, 0, 0.25, 0], "texture": "#0"},
				"down": {"uv": [0.25, 0, 0.25, 0], "texture": "#0"}
			}
		},
		{
			"name": "hexadecagon",
			"from": [7.27473, 7.62295, 4.48434],
			"to": [7.30337, 7.76695, 4.54997],
			"rotation": {"angle": -22.5, "axis": "z", "origin": [7.31132, 7.78448, 5.32828]},
			"faces": {
				"north": {"uv": [0.25, 0, 0.25, 0], "texture": "#0"},
				"east": {"uv": [0.25, 0, 0.25, 0], "texture": "#0"},
				"south": {"uv": [0.25, 0, 0.25, 0], "texture": "#0"},
				"west": {"uv": [0.25, 0, 0.25, 0], "texture": "#0"},
				"up": {"uv": [0.25, 0, 0.25, 0], "texture": "#0"},
				"down": {"uv": [0.25, 0, 0.25, 0], "texture": "#0"}
			}
		},
		{
			"name": "hexadecagon",
			"from": [7.24216, 7.63829, 4.48434],
			"to": [7.27081, 7.78229, 4.54997],
			"rotation": {"angle": 0, "axis": "y", "origin": [7.31132, 7.78448, 5.32828]},
			"faces": {
				"north": {"uv": [0.25, 0, 0.25, 0], "texture": "#0"},
				"east": {"uv": [0.25, 0, 0.25, 0], "texture": "#0"},
				"south": {"uv": [0.25, 0, 0.25, 0], "texture": "#0"},
				"west": {"uv": [0.25, 0, 0.25, 0], "texture": "#0"},
				"up": {"uv": [0.25, 0, 0.25, 0], "texture": "#0"},
				"down": {"uv": [0.25, 0, 0.25, 0], "texture": "#0"}
			}
		},
		{
			"name": "hexadecagon",
			"from": [7.21795, 7.66492, 4.48434],
			"to": [7.24659, 7.80892, 4.54997],
			"rotation": {"angle": 22.5, "axis": "z", "origin": [7.31132, 7.78448, 5.32828]},
			"faces": {
				"north": {"uv": [0.25, 0, 0.25, 0], "texture": "#0"},
				"east": {"uv": [0.25, 0, 0.25, 0], "texture": "#0"},
				"south": {"uv": [0.25, 0, 0.25, 0], "texture": "#0"},
				"west": {"uv": [0.25, 0, 0.25, 0], "texture": "#0"},
				"up": {"uv": [0.25, 0, 0.25, 0], "texture": "#0"},
				"down": {"uv": [0.25, 0, 0.25, 0], "texture": "#0"}
			}
		},
		{
			"name": "hexadecagon",
			"from": [7.20576, 7.69879, 4.48434],
			"to": [7.23441, 7.84279, 4.54997],
			"rotation": {"angle": 45, "axis": "z", "origin": [7.31132, 7.78448, 5.32828]},
			"faces": {
				"north": {"uv": [0.25, 0, 0.25, 0], "texture": "#0"},
				"east": {"uv": [0.25, 0, 0.25, 0], "texture": "#0"},
				"south": {"uv": [0.25, 0, 0.25, 0], "texture": "#0"},
				"west": {"uv": [0.25, 0, 0.25, 0], "texture": "#0"},
				"up": {"uv": [0.25, 0, 0.25, 0], "texture": "#0"},
				"down": {"uv": [0.25, 0, 0.25, 0], "texture": "#0"}
			}
		},
		{
			"name": "hexadecagon",
			"from": [7.21705, 7.68063, 4.48434],
			"to": [7.36105, 7.70928, 4.54997],
			"rotation": {"angle": -22.5, "axis": "z", "origin": [7.31132, 7.78448, 5.32828]},
			"faces": {
				"north": {"uv": [0.25, 0, 0.25, 0], "texture": "#0"},
				"east": {"uv": [0.25, 0, 0.25, 0], "texture": "#0"},
				"south": {"uv": [0.25, 0, 0.25, 0], "texture": "#0"},
				"west": {"uv": [0.25, 0, 0.25, 0], "texture": "#0"},
				"up": {"uv": [0.25, 0, 0.25, 0], "texture": "#0"},
				"down": {"uv": [0.25, 0, 0.25, 0], "texture": "#0"}
			}
		},
		{
			"name": "hexadecagon",
			"from": [7.18449, 7.69597, 4.48434],
			"to": [7.32849, 7.72461, 4.54997],
			"rotation": {"angle": 0, "axis": "y", "origin": [7.31132, 7.78448, 5.32828]},
			"faces": {
				"north": {"uv": [0.25, 0, 0.25, 0], "texture": "#0"},
				"east": {"uv": [0.25, 0, 0.25, 0], "texture": "#0"},
				"south": {"uv": [0.25, 0, 0.25, 0], "texture": "#0"},
				"west": {"uv": [0.25, 0, 0.25, 0], "texture": "#0"},
				"up": {"uv": [0.25, 0, 0.25, 0], "texture": "#0"},
				"down": {"uv": [0.25, 0, 0.25, 0], "texture": "#0"}
			}
		},
		{
			"name": "hexadecagon",
			"from": [7.16027, 7.7226, 4.48434],
			"to": [7.30427, 7.75124, 4.54997],
			"rotation": {"angle": 22.5, "axis": "z", "origin": [7.31132, 7.78448, 5.32828]},
			"faces": {
				"north": {"uv": [0.25, 0, 0.25, 0], "texture": "#0"},
				"east": {"uv": [0.25, 0, 0.25, 0], "texture": "#0"},
				"south": {"uv": [0.25, 0, 0.25, 0], "texture": "#0"},
				"west": {"uv": [0.25, 0, 0.25, 0], "texture": "#0"},
				"up": {"uv": [0.25, 0, 0.25, 0], "texture": "#0"},
				"down": {"uv": [0.25, 0, 0.25, 0], "texture": "#0"}
			}
		},
		{
			"name": "hexadecagon",
			"from": [7.31355, 7.73509, 5.97966],
			"to": [7.33646, 7.85029, 6.00778],
			"rotation": {"angle": -45, "axis": "z", "origin": [7.31132, 7.78448, 5.32828]},
			"faces": {
				"north": {"uv": [5.75, 9, 5.75, 9], "texture": "#0"},
				"east": {"uv": [5.75, 9, 5.75, 9], "texture": "#0"},
				"south": {"uv": [5.75, 9, 5.75, 9], "texture": "#0"},
				"west": {"uv": [5.75, 9, 5.75, 9], "texture": "#0"},
				"up": {"uv": [5.75, 9, 5.75, 9], "texture": "#0"},
				"down": {"uv": [5.75, 9, 5.75, 9], "texture": "#0"}
			}
		},
		{
			"name": "hexadecagon",
			"from": [7.31565, 7.72922, 5.97966],
			"to": [7.33856, 7.84442, 6.00778],
			"rotation": {"angle": -22.5, "axis": "z", "origin": [7.31132, 7.78448, 5.32828]},
			"faces": {
				"north": {"uv": [5.75, 9, 5.75, 9], "texture": "#0"},
				"east": {"uv": [5.75, 9, 5.75, 9], "texture": "#0"},
				"south": {"uv": [5.75, 9, 5.75, 9], "texture": "#0"},
				"west": {"uv": [5.75, 9, 5.75, 9], "texture": "#0"},
				"up": {"uv": [5.75, 9, 5.75, 9], "texture": "#0"},
				"down": {"uv": [5.75, 9, 5.75, 9], "texture": "#0"}
			}
		},
		{
			"name": "hexadecagon",
			"from": [7.31534, 7.723, 5.97966],
			"to": [7.33826, 7.8382, 6.00778],
			"rotation": {"angle": 0, "axis": "y", "origin": [7.31132, 7.78448, 5.32828]},
			"faces": {
				"north": {"uv": [5.75, 9, 5.75, 9], "texture": "#0"},
				"east": {"uv": [5.75, 9, 5.75, 9], "texture": "#0"},
				"south": {"uv": [5.75, 9, 5.75, 9], "texture": "#0"},
				"west": {"uv": [5.75, 9, 5.75, 9], "texture": "#0"},
				"up": {"uv": [5.75, 9, 5.75, 9], "texture": "#0"},
				"down": {"uv": [5.75, 9, 5.75, 9], "texture": "#0"}
			}
		},
		{
			"name": "hexadecagon",
			"from": [7.31268, 7.71738, 5.97966],
			"to": [7.33559, 7.83258, 6.00778],
			"rotation": {"angle": 22.5, "axis": "z", "origin": [7.31132, 7.78448, 5.32828]},
			"faces": {
				"north": {"uv": [5.75, 9, 5.75, 9], "texture": "#0"},
				"east": {"uv": [5.75, 9, 5.75, 9], "texture": "#0"},
				"south": {"uv": [5.75, 9, 5.75, 9], "texture": "#0"},
				"west": {"uv": [5.75, 9, 5.75, 9], "texture": "#0"},
				"up": {"uv": [5.75, 9, 5.75, 9], "texture": "#0"},
				"down": {"uv": [5.75, 9, 5.75, 9], "texture": "#0"}
			}
		},
		{
			"name": "hexadecagon",
			"from": [7.30806, 7.71319, 5.97966],
			"to": [7.33098, 7.82839, 6.00778],
			"rotation": {"angle": 45, "axis": "z", "origin": [7.31132, 7.78448, 5.32828]},
			"faces": {
				"north": {"uv": [5.75, 9, 5.75, 9], "texture": "#0"},
				"east": {"uv": [5.75, 9, 5.75, 9], "texture": "#0"},
				"south": {"uv": [5.75, 9, 5.75, 9], "texture": "#0"},
				"west": {"uv": [5.75, 9, 5.75, 9], "texture": "#0"},
				"up": {"uv": [5.75, 9, 5.75, 9], "texture": "#0"},
				"down": {"uv": [5.75, 9, 5.75, 9], "texture": "#0"}
			}
		},
		{
			"name": "hexadecagon",
			"from": [7.2695, 7.77537, 5.97966],
			"to": [7.3847, 7.79828, 6.00778],
			"rotation": {"angle": -22.5, "axis": "z", "origin": [7.31132, 7.78448, 5.32828]},
			"faces": {
				"north": {"uv": [5.75, 9, 5.75, 9], "texture": "#0"},
				"east": {"uv": [5.75, 9, 5.75, 9], "texture": "#0"},
				"south": {"uv": [5.75, 9, 5.75, 9], "texture": "#0"},
				"west": {"uv": [5.75, 9, 5.75, 9], "texture": "#0"},
				"up": {"uv": [5.75, 9, 5.75, 9], "texture": "#0"},
				"down": {"uv": [5.75, 9, 5.75, 9], "texture": "#0"}
			}
		},
		{
			"name": "hexadecagon",
			"from": [7.2692, 7.76915, 5.97966],
			"to": [7.3844, 7.79206, 6.00778],
			"rotation": {"angle": 0, "axis": "y", "origin": [7.31132, 7.78448, 5.32828]},
			"faces": {
				"north": {"uv": [5.75, 9, 5.75, 9], "texture": "#0"},
				"east": {"uv": [5.75, 9, 5.75, 9], "texture": "#0"},
				"south": {"uv": [5.75, 9, 5.75, 9], "texture": "#0"},
				"west": {"uv": [5.75, 9, 5.75, 9], "texture": "#0"},
				"up": {"uv": [5.75, 9, 5.75, 9], "texture": "#0"},
				"down": {"uv": [5.75, 9, 5.75, 9], "texture": "#0"}
			}
		},
		{
			"name": "hexadecagon",
			"from": [7.26654, 7.76352, 5.97966],
			"to": [7.38174, 7.78643, 6.00778],
			"rotation": {"angle": 22.5, "axis": "z", "origin": [7.31132, 7.78448, 5.32828]},
			"faces": {
				"north": {"uv": [5.75, 9, 5.75, 9], "texture": "#0"},
				"east": {"uv": [5.75, 9, 5.75, 9], "texture": "#0"},
				"south": {"uv": [5.75, 9, 5.75, 9], "texture": "#0"},
				"west": {"uv": [5.75, 9, 5.75, 9], "texture": "#0"},
				"up": {"uv": [5.75, 9, 5.75, 9], "texture": "#0"},
				"down": {"uv": [5.75, 9, 5.75, 9], "texture": "#0"}
			}
		},
		{
			"name": "hexadecagon",
			"from": [7.31069, 7.62125, 0.41793],
			"to": [7.33933, 7.76525, 4.48356],
			"rotation": {"angle": -45, "axis": "z", "origin": [7.31132, 7.78448, 5.26187]},
			"faces": {
				"north": {"uv": [0.5, 15.75, 0.75, 16], "texture": "#0"},
				"east": {"uv": [0.5, 15.75, 0.75, 16], "texture": "#0"},
				"south": {"uv": [0.5, 15.75, 0.75, 16], "texture": "#missing"},
				"west": {"uv": [0.5, 15.75, 0.75, 16], "texture": "#0"},
				"up": {"uv": [0.25, 0, 0.5, 16], "rotation": 180, "texture": "#0"},
				"down": {"uv": [0.25, 0, 0.5, 16], "texture": "#0"}
			}
		},
		{
			"name": "hexadecagon",
			"from": [7.27473, 7.62295, 0.41793],
			"to": [7.30337, 7.76695, 4.48356],
			"rotation": {"angle": -22.5, "axis": "z", "origin": [7.31132, 7.78448, 5.26187]},
			"faces": {
				"north": {"uv": [0.5, 15.75, 0.75, 16], "texture": "#0"},
				"east": {"uv": [0.5, 15.75, 0.75, 16], "texture": "#0"},
				"south": {"uv": [0.5, 15.75, 0.75, 16], "texture": "#missing"},
				"west": {"uv": [0.5, 15.75, 0.75, 16], "texture": "#0"},
				"up": {"uv": [0.25, 0, 0.5, 16], "rotation": 180, "texture": "#0"},
				"down": {"uv": [0.25, 0, 0.5, 16], "texture": "#0"}
			}
		},
		{
			"name": "hexadecagon",
			"from": [7.24216, 7.63829, 0.41793],
			"to": [7.27081, 7.78229, 4.48356],
			"rotation": {"angle": 0, "axis": "y", "origin": [7.31132, 7.78448, 5.26187]},
			"faces": {
				"north": {"uv": [0.5, 15.75, 0.75, 16], "texture": "#0"},
				"east": {"uv": [0.5, 15.75, 0.75, 16], "texture": "#0"},
				"south": {"uv": [0.5, 15.75, 0.75, 16], "texture": "#missing"},
				"west": {"uv": [0.5, 15.75, 0.75, 16], "texture": "#0"},
				"up": {"uv": [0.25, 0, 0.5, 16], "rotation": 180, "texture": "#0"},
				"down": {"uv": [0.25, 0, 0.5, 16], "texture": "#0"}
			}
		},
		{
			"name": "hexadecagon",
			"from": [7.21795, 7.66492, 0.41793],
			"to": [7.24659, 7.80892, 4.48356],
			"rotation": {"angle": 22.5, "axis": "z", "origin": [7.31132, 7.78448, 5.26187]},
			"faces": {
				"north": {"uv": [0.5, 15.75, 0.75, 16], "texture": "#0"},
				"east": {"uv": [0.5, 15.75, 0.75, 16], "texture": "#0"},
				"south": {"uv": [0.5, 15.75, 0.75, 16], "texture": "#missing"},
				"west": {"uv": [0.5, 15.75, 0.75, 16], "texture": "#0"},
				"up": {"uv": [0.25, 0, 0.5, 16], "rotation": 180, "texture": "#0"},
				"down": {"uv": [0.25, 0, 0.5, 16], "texture": "#0"}
			}
		},
		{
			"name": "hexadecagon",
			"from": [7.20576, 7.69879, 0.41793],
			"to": [7.23441, 7.84279, 4.48356],
			"rotation": {"angle": 45, "axis": "z", "origin": [7.31132, 7.78448, 5.26187]},
			"faces": {
				"north": {"uv": [0.5, 15.75, 0.75, 16], "texture": "#0"},
				"east": {"uv": [0.5, 15.75, 0.75, 16], "texture": "#0"},
				"south": {"uv": [0.5, 15.75, 0.75, 16], "texture": "#missing"},
				"west": {"uv": [0.5, 15.75, 0.75, 16], "texture": "#0"},
				"up": {"uv": [0.25, 0, 0.5, 16], "rotation": 180, "texture": "#0"},
				"down": {"uv": [0.25, 0, 0.5, 16], "texture": "#0"}
			}
		},
		{
			"name": "hexadecagon",
			"from": [7.21705, 7.68063, 0.41793],
			"to": [7.36105, 7.70928, 4.48356],
			"rotation": {"angle": -22.5, "axis": "z", "origin": [7.31132, 7.78448, 5.26187]},
			"faces": {
				"north": {"uv": [0.5, 15.75, 0.75, 16], "texture": "#0"},
				"east": {"uv": [0.25, 0, 0.5, 16], "rotation": 270, "texture": "#0"},
				"south": {"uv": [0.5, 15.75, 0.75, 16], "texture": "#missing"},
				"west": {"uv": [0.25, 0, 0.5, 16], "rotation": 90, "texture": "#0"},
				"up": {"uv": [0.5, 15.75, 0.75, 16], "texture": "#0"},
				"down": {"uv": [0.5, 15.75, 0.75, 16], "texture": "#0"}
			}
		},
		{
			"name": "hexadecagon",
			"from": [7.18449, 7.69597, 0.41793],
			"to": [7.32849, 7.72461, 4.48356],
			"rotation": {"angle": 0, "axis": "y", "origin": [7.31132, 7.78448, 5.26187]},
			"faces": {
				"north": {"uv": [0.5, 15.75, 0.75, 16], "texture": "#0"},
				"east": {"uv": [0.25, 0, 0.5, 16], "rotation": 270, "texture": "#0"},
				"south": {"uv": [0.5, 15.75, 0.75, 16], "texture": "#missing"},
				"west": {"uv": [0.25, 0, 0.5, 16], "rotation": 90, "texture": "#0"},
				"up": {"uv": [0.5, 15.75, 0.75, 16], "texture": "#0"},
				"down": {"uv": [0.5, 15.75, 0.75, 16], "texture": "#0"}
			}
		},
		{
			"name": "hexadecagon",
			"from": [7.16027, 7.7226, 0.41793],
			"to": [7.30427, 7.75124, 4.48356],
			"rotation": {"angle": 22.5, "axis": "z", "origin": [7.31132, 7.78448, 5.26187]},
			"faces": {
				"north": {"uv": [0.5, 15.75, 0.75, 16], "texture": "#0"},
				"east": {"uv": [0.25, 0, 0.5, 16], "rotation": 270, "texture": "#0"},
				"south": {"uv": [0.5, 15.75, 0.75, 16], "texture": "#missing"},
				"west": {"uv": [0.25, 0, 0.5, 16], "rotation": 90, "texture": "#0"},
				"up": {"uv": [0.5, 15.75, 0.75, 16], "texture": "#0"},
				"down": {"uv": [0.5, 15.75, 0.75, 16], "texture": "#0"}
			}
		}
	],
	"groups": [
		{
			"name": "laser_left_green",
			"origin": [8, 8, 8],
			"color": 6,
			"children": [
				{
					"name": "group",
					"origin": [7.31132, 7.78448, 5.215],
					"color": 0,
					"children": [0, 1, 2, 3, 4, 5, 6, 7, 8, 9]
				},
				{
					"name": "hexadecagon",
					"origin": [8, 8, 8],
					"color": 0,
					"children": [10, 11, 12, 13, 14, 15, 16, 17]
				},
				{
					"name": "hexadecagon",
					"origin": [8, 8, 8],
					"color": 0,
					"children": [18, 19, 20, 21, 22, 23, 24, 25]
				},
				{
					"name": "hexadecagon",
					"origin": [8, 8, 8],
					"color": 0,
					"children": [26, 27, 28, 29, 30, 31, 32, 33]
				}
			]
		}
	]
}