{
	"credit": "Made with Blockbench",
	"textures": {
		"0": "assemble_guns:item/black_white",
		"particle": "assemble_guns:item/black_white"
	},
	"elements": [
		{
			"from": [7.7, 5.70781, 7.40625],
			"to": [8.3, 7.32109, 9.05469],
			"rotation": {"angle": 0, "axis": "y", "origin": [7.925, 8, 5.48438]},
			"faces": {
				"north": {"uv": [6, 13, 6, 13], "texture": "#0"},
				"east": {"uv": [6, 13, 6, 13], "texture": "#0"},
				"south": {"uv": [6, 13, 6, 13], "texture": "#0"},
				"west": {"uv": [6, 13, 6, 13], "texture": "#0"},
				"up": {"uv": [6, 13, 6, 13], "texture": "#0"},
				"down": {"uv": [6, 13, 6, 13], "texture": "#0"}
			}
		},
		{
			"from": [7.72148, 5.64922, 7.4336],
			"to": [8.27852, 5.70781, 9.02344],
			"rotation": {"angle": 0, "axis": "y", "origin": [7.94648, 7.01563, 5.48438]},
			"faces": {
				"north": {"uv": [6, 13, 6, 13], "texture": "#0"},
				"east": {"uv": [6, 13, 6, 13], "texture": "#0"},
				"south": {"uv": [6, 13, 6, 13], "texture": "#0"},
				"west": {"uv": [6, 13, 6, 13], "texture": "#0"},
				"up": {"uv": [6, 13, 6, 13], "texture": "#0"},
				"down": {"uv": [6, 13, 6, 13], "texture": "#0"}
			}
		}
	],
	"groups": [
		{
			"name": "magazine_shotgun",
			"origin": [8, 8, 8],
			"color": 0,
			"children": [0, 1]
		}
	]
}