{
	"credit": "Made with Blockbench",
	"textures": {
		"0": "assemble_guns:item/black_white",
		"particle": "assemble_guns:item/black_white"
	},
	"elements": [
		{
			"from": [7.7707, 7.19219, 4.3164],
			"to": [8.2293, 7.39765, 6.82578],
			"rotation": {"angle": 0, "axis": "y", "origin": [8.29961, 7.34375, 5.05156]},
			"faces": {
				"north": {"uv": [5.75, 12.25, 5.75, 12.25], "texture": "#0"},
				"east": {"uv": [5.75, 12.25, 5.75, 12.25], "texture": "#0"},
				"south": {"uv": [5.75, 12.25, 5.75, 12.25], "texture": "#0"},
				"west": {"uv": [5.75, 12.25, 5.75, 12.25], "texture": "#0"},
				"up": {"uv": [5.75, 12.25, 5.75, 12.25], "texture": "#0"},
				"down": {"uv": [5.75, 12.25, 5.75, 12.25], "texture": "#0"}
			}
		},
		{
			"from": [7.71503, 7.3162, 4.3164],
			"to": [7.86113, 7.38886, 6.82578],
			"rotation": {"angle": -45, "axis": "z", "origin": [7.78808, 7.41698, 5.57109]},
			"faces": {
				"north": {"uv": [5.75, 12.25, 5.75, 12.25], "texture": "#0"},
				"east": {"uv": [5.75, 12.25, 5.75, 12.25], "texture": "#0"},
				"south": {"uv": [5.75, 12.25, 5.75, 12.25], "texture": "#0"},
				"west": {"uv": [5.75, 12.25, 5.75, 12.25], "texture": "#0"},
				"up": {"uv": [5.75, 12.25, 5.75, 12.25], "texture": "#0"},
				"down": {"uv": [5.75, 12.25, 5.75, 12.25], "texture": "#0"}
			}
		},
		{
			"from": [8.17695, 7.21953, 4.3164],
			"to": [8.32305, 7.28828, 6.82578],
			"rotation": {"angle": 45, "axis": "z", "origin": [8.11328, 7.32031, 5.57109]},
			"faces": {
				"north": {"uv": [5.75, 12.25, 5.75, 12.25], "texture": "#0"},
				"east": {"uv": [5.75, 12.25, 5.75, 12.25], "texture": "#0"},
				"south": {"uv": [5.75, 12.25, 5.75, 12.25], "texture": "#0"},
				"west": {"uv": [5.75, 12.25, 5.75, 12.25], "texture": "#0"},
				"up": {"uv": [5.75, 12.25, 5.75, 12.25], "texture": "#0"},
				"down": {"uv": [5.75, 12.25, 5.75, 12.25], "texture": "#0"}
			}
		},
		{
			"from": [7.74531, 7.11406, 4.3164],
			"to": [8.25469, 7.19453, 6.82578],
			"rotation": {"angle": 0, "axis": "y", "origin": [8.33281, 7.14453, 5.05156]},
			"faces": {
				"north": {"uv": [5.75, 13.5, 5.75, 13.5], "texture": "#0"},
				"east": {"uv": [5.75, 13.5, 5.75, 13.5], "texture": "#0"},
				"south": {"uv": [5.75, 13.5, 5.75, 13.5], "texture": "#0"},
				"west": {"uv": [5.75, 13.5, 5.75, 13.5], "texture": "#0"},
				"up": {"uv": [5.75, 13.5, 5.75, 13.5], "texture": "#0"},
				"down": {"uv": [5.75, 13.5, 5.75, 13.5], "texture": "#0"}
			}
		},
		{
			"from": [8.0625, 7.81031, 4.3164],
			"to": [8.4125, 7.98531, 7.12656],
			"rotation": {"angle": -45, "axis": "z", "origin": [8.37498, 7.90327, 5.05156]},
			"faces": {
				"north": {"uv": [5.75, 11, 5.75, 11], "texture": "#0"},
				"east": {"uv": [5.75, 11, 5.75, 11], "texture": "#0"},
				"south": {"uv": [5.75, 11, 5.75, 11], "texture": "#0"},
				"west": {"uv": [5.75, 11, 5.75, 11], "texture": "#0"},
				"up": {"uv": [5.75, 11, 5.75, 11], "texture": "#0"},
				"down": {"uv": [5.75, 11, 5.75, 11], "texture": "#0"}
			}
		},
		{
			"from": [7.4875, 7.39531, 4.3164],
			"to": [8.5125, 7.49531, 7.12656],
			"rotation": {"angle": 0, "axis": "y", "origin": [8.0125, 7.44531, 5.05156]},
			"faces": {
				"north": {"uv": [5.75, 11, 5.75, 11], "texture": "#0"},
				"east": {"uv": [5.75, 11, 5.75, 11], "texture": "#0"},
				"south": {"uv": [5.75, 11, 5.75, 11], "texture": "#0"},
				"west": {"uv": [5.75, 11, 5.75, 11], "texture": "#0"},
				"up": {"uv": [5.75, 11, 5.75, 11], "texture": "#0"},
				"down": {"uv": [5.75, 11, 5.75, 11], "texture": "#0"}
			}
		},
		{
			"from": [7.55, 7.80031, 4.3164],
			"to": [7.725, 7.90031, 7.12656],
			"rotation": {"angle": -22.5, "axis": "z", "origin": [7.625, 7.94531, 5.05156]},
			"faces": {
				"north": {"uv": [5.75, 11, 5.75, 11], "texture": "#0"},
				"east": {"uv": [5.75, 11, 5.75, 11], "texture": "#0"},
				"south": {"uv": [5.75, 11, 5.75, 11], "texture": "#0"},
				"west": {"uv": [5.75, 11, 5.75, 11], "texture": "#0"},
				"up": {"uv": [5.75, 11, 5.75, 11], "texture": "#0"},
				"down": {"uv": [5.75, 11, 5.75, 11], "texture": "#0"}
			}
		},
		{
			"from": [7.7875, 7.84531, 4.3164],
			"to": [8.2125, 8.36875, 7.12109],
			"rotation": {"angle": 0, "axis": "y", "origin": [7.9375, 7.89531, 5.05156]},
			"faces": {
				"north": {"uv": [5.75, 11, 5.75, 11], "texture": "#0"},
				"east": {"uv": [5.75, 11, 5.75, 11], "texture": "#0"},
				"south": {"uv": [5.75, 11, 5.75, 11], "texture": "#0"},
				"west": {"uv": [5.75, 11, 5.75, 11], "texture": "#0"},
				"up": {"uv": [5.75, 11, 5.75, 11], "texture": "#0"},
				"down": {"uv": [5.75, 11, 5.75, 11], "texture": "#0"}
			}
		},
		{
			"from": [7.55, 7.84531, 4.3164],
			"to": [7.725, 8.19531, 7.12656],
			"rotation": {"angle": -45, "axis": "z", "origin": [7.65019, 7.90276, 5.05156]},
			"faces": {
				"north": {"uv": [5.75, 11, 5.75, 11], "texture": "#0"},
				"east": {"uv": [5.75, 11, 5.75, 11], "texture": "#0"},
				"south": {"uv": [5.75, 11, 5.75, 11], "texture": "#0"},
				"west": {"uv": [5.75, 11, 5.75, 11], "texture": "#0"},
				"up": {"uv": [5.75, 11, 5.75, 11], "texture": "#0"},
				"down": {"uv": [5.75, 11, 5.75, 11], "texture": "#0"}
			}
		},
		{
			"from": [8.31269, 7.80331, 4.3164],
			"to": [8.48769, 7.90331, 7.12656],
			"rotation": {"angle": 22.5, "axis": "z", "origin": [8.40019, 7.85276, 5.05156]},
			"faces": {
				"north": {"uv": [5.75, 11, 5.75, 11], "texture": "#0"},
				"east": {"uv": [5.75, 11, 5.75, 11], "texture": "#0"},
				"south": {"uv": [5.75, 11, 5.75, 11], "texture": "#0"},
				"west": {"uv": [5.75, 11, 5.75, 11], "texture": "#0"},
				"up": {"uv": [5.75, 11, 5.75, 11], "texture": "#0"},
				"down": {"uv": [5.75, 11, 5.75, 11], "texture": "#0"}
			}
		},
		{
			"from": [7.5, 7.49531, 4.3164],
			"to": [8.5, 7.84531, 7.12656],
			"rotation": {"angle": 0, "axis": "y", "origin": [8, 7.54531, 5.05156]},
			"faces": {
				"north": {"uv": [5.75, 11, 5.75, 11], "texture": "#0"},
				"east": {"uv": [5.75, 11, 5.75, 11], "texture": "#0"},
				"south": {"uv": [5.75, 11, 5.75, 11], "texture": "#0"},
				"west": {"uv": [5.75, 11, 5.75, 11], "texture": "#0"},
				"up": {"uv": [5.75, 11, 5.75, 11], "texture": "#0"},
				"down": {"uv": [5.75, 11, 5.75, 11], "texture": "#0"}
			}
		},
		{
			"from": [7.45313, 7.53437, 4.3164],
			"to": [8.54687, 7.82969, 5.61484],
			"rotation": {"angle": 0, "axis": "y", "origin": [8.04688, 7.51406, 5.05156]},
			"faces": {
				"north": {"uv": [5.75, 12.25, 5.75, 12.25], "texture": "#0"},
				"east": {"uv": [5.75, 12.25, 5.75, 12.25], "texture": "#0"},
				"south": {"uv": [5.75, 12.25, 5.75, 12.25], "texture": "#0"},
				"west": {"uv": [5.75, 12.25, 5.75, 12.25], "texture": "#0"},
				"up": {"uv": [5.75, 12.25, 5.75, 12.25], "texture": "#0"},
				"down": {"uv": [5.75, 12.25, 5.75, 12.25], "texture": "#0"}
			}
		},
		{
			"from": [7.41211, 7.53437, 4.3164],
			"to": [8.58789, 7.82969, 4.38828],
			"rotation": {"angle": 0, "axis": "y", "origin": [8.08789, 7.51406, 5.05156]},
			"faces": {
				"north": {"uv": [5.75, 12.25, 5.75, 12.25], "texture": "#0"},
				"east": {"uv": [5.75, 12.25, 5.75, 12.25], "texture": "#0"},
				"south": {"uv": [5.75, 12.25, 5.75, 12.25], "texture": "#0"},
				"west": {"uv": [5.75, 12.25, 5.75, 12.25], "texture": "#0"},
				"up": {"uv": [5.75, 12.25, 5.75, 12.25], "texture": "#0"},
				"down": {"uv": [5.75, 12.25, 5.75, 12.25], "texture": "#0"}
			}
		},
		{
			"from": [7.41211, 7.53437, 4.59765],
			"to": [8.58789, 7.82969, 4.66953],
			"rotation": {"angle": 0, "axis": "y", "origin": [8.08789, 7.51406, 5.33281]},
			"faces": {
				"north": {"uv": [5.75, 12.25, 5.75, 12.25], "texture": "#0"},
				"east": {"uv": [5.75, 12.25, 5.75, 12.25], "texture": "#0"},
				"south": {"uv": [5.75, 12.25, 5.75, 12.25], "texture": "#0"},
				"west": {"uv": [5.75, 12.25, 5.75, 12.25], "texture": "#0"},
				"up": {"uv": [5.75, 12.25, 5.75, 12.25], "texture": "#0"},
				"down": {"uv": [5.75, 12.25, 5.75, 12.25], "texture": "#0"}
			}
		},
		{
			"from": [7.41211, 7.53437, 5.16406],
			"to": [8.58789, 7.82969, 5.23594],
			"rotation": {"angle": 0, "axis": "y", "origin": [8.08789, 7.51406, 5.89922]},
			"faces": {
				"north": {"uv": [5.75, 12.25, 5.75, 12.25], "texture": "#0"},
				"east": {"uv": [5.75, 12.25, 5.75, 12.25], "texture": "#0"},
				"south": {"uv": [5.75, 12.25, 5.75, 12.25], "texture": "#0"},
				"west": {"uv": [5.75, 12.25, 5.75, 12.25], "texture": "#0"},
				"up": {"uv": [5.75, 12.25, 5.75, 12.25], "texture": "#0"},
				"down": {"uv": [5.75, 12.25, 5.75, 12.25], "texture": "#0"}
			}
		},
		{
			"from": [7.41211, 7.53437, 5.44922],
			"to": [8.58789, 7.82969, 5.52109],
			"rotation": {"angle": 0, "axis": "y", "origin": [8.08789, 7.51406, 6.18437]},
			"faces": {
				"north": {"uv": [5.75, 12.25, 5.75, 12.25], "texture": "#0"},
				"east": {"uv": [5.75, 12.25, 5.75, 12.25], "texture": "#0"},
				"south": {"uv": [5.75, 12.25, 5.75, 12.25], "texture": "#0"},
				"west": {"uv": [5.75, 12.25, 5.75, 12.25], "texture": "#0"},
				"up": {"uv": [5.75, 12.25, 5.75, 12.25], "texture": "#0"},
				"down": {"uv": [5.75, 12.25, 5.75, 12.25], "texture": "#0"}
			}
		},
		{
			"from": [7.41211, 7.53437, 4.8789],
			"to": [8.58789, 7.82969, 4.95078],
			"rotation": {"angle": 0, "axis": "y", "origin": [8.08789, 7.51406, 5.61406]},
			"faces": {
				"north": {"uv": [5.75, 12.25, 5.75, 12.25], "texture": "#0"},
				"east": {"uv": [5.75, 12.25, 5.75, 12.25], "texture": "#0"},
				"south": {"uv": [5.75, 12.25, 5.75, 12.25], "texture": "#0"},
				"west": {"uv": [5.75, 12.25, 5.75, 12.25], "texture": "#0"},
				"up": {"uv": [5.75, 12.25, 5.75, 12.25], "texture": "#0"},
				"down": {"uv": [5.75, 12.25, 5.75, 12.25], "texture": "#0"}
			}
		},
		{
			"from": [7.41211, 7.53437, 4.45703],
			"to": [8.58789, 7.82969, 4.52891],
			"rotation": {"angle": 0, "axis": "y", "origin": [8.08789, 7.51406, 5.19219]},
			"faces": {
				"north": {"uv": [5.75, 12.25, 5.75, 12.25], "texture": "#0"},
				"east": {"uv": [5.75, 12.25, 5.75, 12.25], "texture": "#0"},
				"south": {"uv": [5.75, 12.25, 5.75, 12.25], "texture": "#0"},
				"west": {"uv": [5.75, 12.25, 5.75, 12.25], "texture": "#0"},
				"up": {"uv": [5.75, 12.25, 5.75, 12.25], "texture": "#0"},
				"down": {"uv": [5.75, 12.25, 5.75, 12.25], "texture": "#0"}
			}
		},
		{
			"from": [7.41211, 7.53437, 4.73828],
			"to": [8.58789, 7.82969, 4.81016],
			"rotation": {"angle": 0, "axis": "y", "origin": [8.08789, 7.51406, 5.47344]},
			"faces": {
				"north": {"uv": [5.75, 12.25, 5.75, 12.25], "texture": "#0"},
				"east": {"uv": [5.75, 12.25, 5.75, 12.25], "texture": "#0"},
				"south": {"uv": [5.75, 12.25, 5.75, 12.25], "texture": "#0"},
				"west": {"uv": [5.75, 12.25, 5.75, 12.25], "texture": "#0"},
				"up": {"uv": [5.75, 12.25, 5.75, 12.25], "texture": "#0"},
				"down": {"uv": [5.75, 12.25, 5.75, 12.25], "texture": "#0"}
			}
		},
		{
			"from": [7.41211, 7.53437, 5.30468],
			"to": [8.58789, 7.82969, 5.37656],
			"rotation": {"angle": 0, "axis": "y", "origin": [8.08789, 7.51406, 6.03984]},
			"faces": {
				"north": {"uv": [5.75, 12.25, 5.75, 12.25], "texture": "#0"},
				"east": {"uv": [5.75, 12.25, 5.75, 12.25], "texture": "#0"},
				"south": {"uv": [5.75, 12.25, 5.75, 12.25], "texture": "#0"},
				"west": {"uv": [5.75, 12.25, 5.75, 12.25], "texture": "#0"},
				"up": {"uv": [5.75, 12.25, 5.75, 12.25], "texture": "#0"},
				"down": {"uv": [5.75, 12.25, 5.75, 12.25], "texture": "#0"}
			}
		},
		{
			"from": [7.41211, 7.53437, 5.58984],
			"to": [8.58789, 7.82969, 5.66172],
			"rotation": {"angle": 0, "axis": "y", "origin": [8.08789, 7.51406, 6.325]},
			"faces": {
				"north": {"uv": [5.75, 12.25, 5.75, 12.25], "texture": "#0"},
				"east": {"uv": [5.75, 12.25, 5.75, 12.25], "texture": "#0"},
				"south": {"uv": [5.75, 12.25, 5.75, 12.25], "texture": "#0"},
				"west": {"uv": [5.75, 12.25, 5.75, 12.25], "texture": "#0"},
				"up": {"uv": [5.75, 12.25, 5.75, 12.25], "texture": "#0"},
				"down": {"uv": [5.75, 12.25, 5.75, 12.25], "texture": "#0"}
			}
		},
		{
			"from": [7.41211, 7.53437, 5.01953],
			"to": [8.58789, 7.82969, 5.09141],
			"rotation": {"angle": 0, "axis": "y", "origin": [8.08789, 7.51406, 5.75469]},
			"faces": {
				"north": {"uv": [5.75, 12.25, 5.75, 12.25], "texture": "#0"},
				"east": {"uv": [5.75, 12.25, 5.75, 12.25], "texture": "#0"},
				"south": {"uv": [5.75, 12.25, 5.75, 12.25], "texture": "#0"},
				"west": {"uv": [5.75, 12.25, 5.75, 12.25], "texture": "#0"},
				"up": {"uv": [5.75, 12.25, 5.75, 12.25], "texture": "#0"},
				"down": {"uv": [5.75, 12.25, 5.75, 12.25], "texture": "#0"}
			}
		},
		{
			"from": [7.86172, 8.44688, 4.3164],
			"to": [8.13828, 8.47813, 7.12656],
			"rotation": {"angle": 0, "axis": "y", "origin": [7.89453, 8.49688, 8.04766]},
			"faces": {
				"north": {"uv": [6, 10.25, 6, 10.25], "texture": "#0"},
				"east": {"uv": [6, 10.25, 6, 10.25], "texture": "#0"},
				"south": {"uv": [6, 10.25, 6, 10.25], "texture": "#0"},
				"west": {"uv": [6, 10.25, 6, 10.25], "texture": "#0"},
				"up": {"uv": [6, 10.25, 6, 10.25], "texture": "#0"},
				"down": {"uv": [6, 10.25, 6, 10.25], "texture": "#0"}
			}
		},
		{
			"from": [7.8832, 8.36875, 4.3164],
			"to": [8.1168, 8.44688, 7.12656],
			"rotation": {"angle": 0, "axis": "y", "origin": [7.87305, 8.41875, 8.04766]},
			"faces": {
				"north": {"uv": [6, 10.25, 6, 10.25], "texture": "#0"},
				"east": {"uv": [6, 10.25, 6, 10.25], "texture": "#0"},
				"south": {"uv": [6, 10.25, 6, 10.25], "texture": "#0"},
				"west": {"uv": [6, 10.25, 6, 10.25], "texture": "#0"},
				"up": {"uv": [6, 10.25, 6, 10.25], "texture": "#0"},
				"down": {"uv": [6, 10.25, 6, 10.25], "texture": "#0"}
			}
		},
		{
			"from": [7.81484, 8.36875, 4.3164],
			"to": [8.18516, 8.38828, 7.12656],
			"rotation": {"angle": 0, "axis": "y", "origin": [7.94141, 8.41875, 8.04766]},
			"faces": {
				"north": {"uv": [5.75, 11, 5.75, 11], "texture": "#0"},
				"east": {"uv": [5.75, 11, 5.75, 11], "texture": "#0"},
				"south": {"uv": [5.75, 11, 5.75, 11], "texture": "#0"},
				"west": {"uv": [5.75, 11, 5.75, 11], "texture": "#0"},
				"up": {"uv": [5.75, 11, 5.75, 11], "texture": "#0"},
				"down": {"uv": [5.75, 11, 5.75, 11], "texture": "#0"}
			}
		},
		{
			"from": [7.86172, 8.47813, 6.96484],
			"to": [8.13828, 8.53282, 7.05625],
			"rotation": {"angle": 0, "axis": "y", "origin": [7.89453, 8.52813, 7.97734]},
			"faces": {
				"north": {"uv": [6, 10.25, 6, 10.25], "texture": "#0"},
				"east": {"uv": [6, 10.25, 6, 10.25], "texture": "#0"},
				"south": {"uv": [6, 10.25, 6, 10.25], "texture": "#0"},
				"west": {"uv": [6, 10.25, 6, 10.25], "texture": "#0"},
				"up": {"uv": [6, 10.25, 6, 10.25], "texture": "#0"},
				"down": {"uv": [6, 10.25, 6, 10.25], "texture": "#0"}
			}
		},
		{
			"from": [7.86172, 8.47813, 6.78515],
			"to": [8.13828, 8.53282, 6.87656],
			"rotation": {"angle": 0, "axis": "y", "origin": [7.89453, 8.52813, 7.79766]},
			"faces": {
				"north": {"uv": [6, 10.25, 6, 10.25], "texture": "#0"},
				"east": {"uv": [6, 10.25, 6, 10.25], "texture": "#0"},
				"south": {"uv": [6, 10.25, 6, 10.25], "texture": "#0"},
				"west": {"uv": [6, 10.25, 6, 10.25], "texture": "#0"},
				"up": {"uv": [6, 10.25, 6, 10.25], "texture": "#0"},
				"down": {"uv": [6, 10.25, 6, 10.25], "texture": "#0"}
			}
		},
		{
			"from": [7.86172, 8.47813, 6.42578],
			"to": [8.13828, 8.53282, 6.51719],
			"rotation": {"angle": 0, "axis": "y", "origin": [7.89453, 8.52813, 7.43828]},
			"faces": {
				"north": {"uv": [6, 10.25, 6, 10.25], "texture": "#0"},
				"east": {"uv": [6, 10.25, 6, 10.25], "texture": "#0"},
				"south": {"uv": [6, 10.25, 6, 10.25], "texture": "#0"},
				"west": {"uv": [6, 10.25, 6, 10.25], "texture": "#0"},
				"up": {"uv": [6, 10.25, 6, 10.25], "texture": "#0"},
				"down": {"uv": [6, 10.25, 6, 10.25], "texture": "#0"}
			}
		},
		{
			"from": [7.86172, 8.47813, 6.60546],
			"to": [8.13828, 8.53282, 6.69688],
			"rotation": {"angle": 0, "axis": "y", "origin": [7.89453, 8.52813, 7.61797]},
			"faces": {
				"north": {"uv": [6, 10.25, 6, 10.25], "texture": "#0"},
				"east": {"uv": [6, 10.25, 6, 10.25], "texture": "#0"},
				"south": {"uv": [6, 10.25, 6, 10.25], "texture": "#0"},
				"west": {"uv": [6, 10.25, 6, 10.25], "texture": "#0"},
				"up": {"uv": [6, 10.25, 6, 10.25], "texture": "#0"},
				"down": {"uv": [6, 10.25, 6, 10.25], "texture": "#0"}
			}
		},
		{
			"from": [7.86172, 8.47813, 6.24609],
			"to": [8.13828, 8.53282, 6.3375],
			"rotation": {"angle": 0, "axis": "y", "origin": [7.89453, 8.52813, 7.25859]},
			"faces": {
				"north": {"uv": [6, 10.25, 6, 10.25], "texture": "#0"},
				"east": {"uv": [6, 10.25, 6, 10.25], "texture": "#0"},
				"south": {"uv": [6, 10.25, 6, 10.25], "texture": "#0"},
				"west": {"uv": [6, 10.25, 6, 10.25], "texture": "#0"},
				"up": {"uv": [6, 10.25, 6, 10.25], "texture": "#0"},
				"down": {"uv": [6, 10.25, 6, 10.25], "texture": "#0"}
			}
		},
		{
			"from": [7.86172, 8.47813, 6.0664],
			"to": [8.13828, 8.53282, 6.15781],
			"rotation": {"angle": 0, "axis": "y", "origin": [7.89453, 8.52813, 7.07891]},
			"faces": {
				"north": {"uv": [6, 10.25, 6, 10.25], "texture": "#0"},
				"east": {"uv": [6, 10.25, 6, 10.25], "texture": "#0"},
				"south": {"uv": [6, 10.25, 6, 10.25], "texture": "#0"},
				"west": {"uv": [6, 10.25, 6, 10.25], "texture": "#0"},
				"up": {"uv": [6, 10.25, 6, 10.25], "texture": "#0"},
				"down": {"uv": [6, 10.25, 6, 10.25], "texture": "#0"}
			}
		},
		{
			"from": [7.86172, 8.47813, 5.88671],
			"to": [8.13828, 8.53282, 5.97813],
			"rotation": {"angle": 0, "axis": "y", "origin": [7.89453, 8.52813, 6.89922]},
			"faces": {
				"north": {"uv": [6, 10.25, 6, 10.25], "texture": "#0"},
				"east": {"uv": [6, 10.25, 6, 10.25], "texture": "#0"},
				"south": {"uv": [6, 10.25, 6, 10.25], "texture": "#0"},
				"west": {"uv": [6, 10.25, 6, 10.25], "texture": "#0"},
				"up": {"uv": [6, 10.25, 6, 10.25], "texture": "#0"},
				"down": {"uv": [6, 10.25, 6, 10.25], "texture": "#0"}
			}
		},
		{
			"from": [7.86172, 8.47813, 5.70703],
			"to": [8.13828, 8.53282, 5.79844],
			"rotation": {"angle": 0, "axis": "y", "origin": [7.89453, 8.52813, 6.71953]},
			"faces": {
				"north": {"uv": [6, 10.25, 6, 10.25], "texture": "#0"},
				"east": {"uv": [6, 10.25, 6, 10.25], "texture": "#0"},
				"south": {"uv": [6, 10.25, 6, 10.25], "texture": "#0"},
				"west": {"uv": [6, 10.25, 6, 10.25], "texture": "#0"},
				"up": {"uv": [6, 10.25, 6, 10.25], "texture": "#0"},
				"down": {"uv": [6, 10.25, 6, 10.25], "texture": "#0"}
			}
		},
		{
			"from": [7.86172, 8.47813, 5.52734],
			"to": [8.13828, 8.53282, 5.61875],
			"rotation": {"angle": 0, "axis": "y", "origin": [7.89453, 8.52813, 6.53984]},
			"faces": {
				"north": {"uv": [6, 10.25, 6, 10.25], "texture": "#0"},
				"east": {"uv": [6, 10.25, 6, 10.25], "texture": "#0"},
				"south": {"uv": [6, 10.25, 6, 10.25], "texture": "#0"},
				"west": {"uv": [6, 10.25, 6, 10.25], "texture": "#0"},
				"up": {"uv": [6, 10.25, 6, 10.25], "texture": "#0"},
				"down": {"uv": [6, 10.25, 6, 10.25], "texture": "#0"}
			}
		},
		{
			"from": [7.86172, 8.47813, 5.34765],
			"to": [8.13828, 8.53282, 5.43906],
			"rotation": {"angle": 0, "axis": "y", "origin": [7.89453, 8.52813, 6.36016]},
			"faces": {
				"north": {"uv": [6, 10.25, 6, 10.25], "texture": "#0"},
				"east": {"uv": [6, 10.25, 6, 10.25], "texture": "#0"},
				"south": {"uv": [6, 10.25, 6, 10.25], "texture": "#0"},
				"west": {"uv": [6, 10.25, 6, 10.25], "texture": "#0"},
				"up": {"uv": [6, 10.25, 6, 10.25], "texture": "#0"},
				"down": {"uv": [6, 10.25, 6, 10.25], "texture": "#0"}
			}
		},
		{
			"from": [7.86172, 8.47813, 5.16796],
			"to": [8.13828, 8.53282, 5.25938],
			"rotation": {"angle": 0, "axis": "y", "origin": [7.89453, 8.52813, 6.18047]},
			"faces": {
				"north": {"uv": [6, 10.25, 6, 10.25], "texture": "#0"},
				"east": {"uv": [6, 10.25, 6, 10.25], "texture": "#0"},
				"south": {"uv": [6, 10.25, 6, 10.25], "texture": "#0"},
				"west": {"uv": [6, 10.25, 6, 10.25], "texture": "#0"},
				"up": {"uv": [6, 10.25, 6, 10.25], "texture": "#0"},
				"down": {"uv": [6, 10.25, 6, 10.25], "texture": "#0"}
			}
		},
		{
			"from": [7.86172, 8.47813, 4.98828],
			"to": [8.13828, 8.53282, 5.07969],
			"rotation": {"angle": 0, "axis": "y", "origin": [7.89453, 8.52813, 6.00078]},
			"faces": {
				"north": {"uv": [6, 10.25, 6, 10.25], "texture": "#0"},
				"east": {"uv": [6, 10.25, 6, 10.25], "texture": "#0"},
				"south": {"uv": [6, 10.25, 6, 10.25], "texture": "#0"},
				"west": {"uv": [6, 10.25, 6, 10.25], "texture": "#0"},
				"up": {"uv": [6, 10.25, 6, 10.25], "texture": "#0"},
				"down": {"uv": [6, 10.25, 6, 10.25], "texture": "#0"}
			}
		},
		{
			"from": [7.86172, 8.47813, 4.80468],
			"to": [8.13828, 8.53282, 4.89609],
			"rotation": {"angle": 0, "axis": "y", "origin": [7.89453, 8.52813, 5.81719]},
			"faces": {
				"north": {"uv": [6, 10.25, 6, 10.25], "texture": "#0"},
				"east": {"uv": [6, 10.25, 6, 10.25], "texture": "#0"},
				"south": {"uv": [6, 10.25, 6, 10.25], "texture": "#0"},
				"west": {"uv": [6, 10.25, 6, 10.25], "texture": "#0"},
				"up": {"uv": [6, 10.25, 6, 10.25], "texture": "#0"},
				"down": {"uv": [6, 10.25, 6, 10.25], "texture": "#0"}
			}
		},
		{
			"from": [7.86172, 8.47813, 4.625],
			"to": [8.13828, 8.53282, 4.71641],
			"rotation": {"angle": 0, "axis": "y", "origin": [7.89453, 8.52813, 5.6375]},
			"faces": {
				"north": {"uv": [6, 10.25, 6, 10.25], "texture": "#0"},
				"east": {"uv": [6, 10.25, 6, 10.25], "texture": "#0"},
				"south": {"uv": [6, 10.25, 6, 10.25], "texture": "#0"},
				"west": {"uv": [6, 10.25, 6, 10.25], "texture": "#0"},
				"up": {"uv": [6, 10.25, 6, 10.25], "texture": "#0"},
				"down": {"uv": [6, 10.25, 6, 10.25], "texture": "#0"}
			}
		},
		{
			"from": [7.86172, 8.47813, 4.3164],
			"to": [8.13828, 8.53282, 4.53672],
			"rotation": {"angle": 0, "axis": "y", "origin": [7.89453, 8.52813, 5.45781]},
			"faces": {
				"north": {"uv": [6, 10.25, 6, 10.25], "texture": "#0"},
				"east": {"uv": [6, 10.25, 6, 10.25], "texture": "#0"},
				"south": {"uv": [6, 10.25, 6, 10.25], "texture": "#0"},
				"west": {"uv": [6, 10.25, 6, 10.25], "texture": "#0"},
				"up": {"uv": [6, 10.25, 6, 10.25], "texture": "#0"},
				"down": {"uv": [6, 10.25, 6, 10.25], "texture": "#0"}
			}
		},
		{
			"name": "hexadecagon",
			"from": [7.92044, 7.30703, 4.25781],
			"to": [8.07956, 8.10703, 4.32031],
			"rotation": {"angle": -45, "axis": "z", "origin": [8, 7.70703, 3.82031]},
			"faces": {
				"north": {"uv": [5.75, 11, 5.75, 11], "texture": "#0"},
				"east": {"uv": [5.75, 11, 5.75, 11], "texture": "#0"},
				"south": {"uv": [5.75, 11, 5.75, 11], "texture": "#0"},
				"west": {"uv": [5.75, 11, 5.75, 11], "texture": "#0"},
				"up": {"uv": [5.75, 11, 5.75, 11], "texture": "#0"},
				"down": {"uv": [5.75, 11, 5.75, 11], "texture": "#0"}
			}
		},
		{
			"name": "hexadecagon",
			"from": [7.92044, 7.30703, 4.25781],
			"to": [8.07956, 8.10703, 4.32031],
			"rotation": {"angle": -22.5, "axis": "z", "origin": [8, 7.70703, 3.82031]},
			"faces": {
				"north": {"uv": [5.75, 11, 5.75, 11], "texture": "#0"},
				"east": {"uv": [5.75, 11, 5.75, 11], "texture": "#0"},
				"south": {"uv": [5.75, 11, 5.75, 11], "texture": "#0"},
				"west": {"uv": [5.75, 11, 5.75, 11], "texture": "#0"},
				"up": {"uv": [5.75, 11, 5.75, 11], "texture": "#0"},
				"down": {"uv": [5.75, 11, 5.75, 11], "texture": "#0"}
			}
		},
		{
			"name": "hexadecagon",
			"from": [7.92044, 7.30703, 4.25781],
			"to": [8.07956, 8.10703, 4.32031],
			"rotation": {"angle": 0, "axis": "y", "origin": [8, 7.70703, 3.82031]},
			"faces": {
				"north": {"uv": [5.75, 11, 5.75, 11], "texture": "#0"},
				"east": {"uv": [5.75, 11, 5.75, 11], "texture": "#0"},
				"south": {"uv": [5.75, 11, 5.75, 11], "texture": "#0"},
				"west": {"uv": [5.75, 11, 5.75, 11], "texture": "#0"},
				"up": {"uv": [5.75, 11, 5.75, 11], "texture": "#0"},
				"down": {"uv": [5.75, 11, 5.75, 11], "texture": "#0"}
			}
		},
		{
			"name": "hexadecagon",
			"from": [7.92044, 7.30703, 4.25781],
			"to": [8.07956, 8.10703, 4.32031],
			"rotation": {"angle": 22.5, "axis": "z", "origin": [8, 7.70703, 3.82031]},
			"faces": {
				"north": {"uv": [5.75, 11, 5.75, 11], "texture": "#0"},
				"east": {"uv": [5.75, 11, 5.75, 11], "texture": "#0"},
				"south": {"uv": [5.75, 11, 5.75, 11], "texture": "#0"},
				"west": {"uv": [5.75, 11, 5.75, 11], "texture": "#0"},
				"up": {"uv": [5.75, 11, 5.75, 11], "texture": "#0"},
				"down": {"uv": [5.75, 11, 5.75, 11], "texture": "#0"}
			}
		},
		{
			"name": "hexadecagon",
			"from": [7.92044, 7.30703, 4.25781],
			"to": [8.07956, 8.10703, 4.32031],
			"rotation": {"angle": 45, "axis": "z", "origin": [8, 7.70703, 3.82031]},
			"faces": {
				"north": {"uv": [5.75, 11, 5.75, 11], "texture": "#0"},
				"east": {"uv": [5.75, 11, 5.75, 11], "texture": "#0"},
				"south": {"uv": [5.75, 11, 5.75, 11], "texture": "#0"},
				"west": {"uv": [5.75, 11, 5.75, 11], "texture": "#0"},
				"up": {"uv": [5.75, 11, 5.75, 11], "texture": "#0"},
				"down": {"uv": [5.75, 11, 5.75, 11], "texture": "#0"}
			}
		},
		{
			"name": "hexadecagon",
			"from": [7.6, 7.62747, 4.25781],
			"to": [8.4, 7.7866, 4.32031],
			"rotation": {"angle": -22.5, "axis": "z", "origin": [8, 7.70703, 3.82031]},
			"faces": {
				"north": {"uv": [5.75, 11, 5.75, 11], "texture": "#0"},
				"east": {"uv": [5.75, 11, 5.75, 11], "texture": "#0"},
				"south": {"uv": [5.75, 11, 5.75, 11], "texture": "#0"},
				"west": {"uv": [5.75, 11, 5.75, 11], "texture": "#0"},
				"up": {"uv": [5.75, 11, 5.75, 11], "texture": "#0"},
				"down": {"uv": [5.75, 11, 5.75, 11], "texture": "#0"}
			}
		},
		{
			"name": "hexadecagon",
			"from": [7.6, 7.62747, 4.25781],
			"to": [8.4, 7.7866, 4.32031],
			"rotation": {"angle": 0, "axis": "y", "origin": [8, 7.70703, 3.82031]},
			"faces": {
				"north": {"uv": [5.75, 11, 5.75, 11], "texture": "#0"},
				"east": {"uv": [5.75, 11, 5.75, 11], "texture": "#0"},
				"south": {"uv": [5.75, 11, 5.75, 11], "texture": "#0"},
				"west": {"uv": [5.75, 11, 5.75, 11], "texture": "#0"},
				"up": {"uv": [5.75, 11, 5.75, 11], "texture": "#0"},
				"down": {"uv": [5.75, 11, 5.75, 11], "texture": "#0"}
			}
		},
		{
			"name": "hexadecagon",
			"from": [7.6, 7.62747, 4.25781],
			"to": [8.4, 7.7866, 4.32031],
			"rotation": {"angle": 22.5, "axis": "z", "origin": [8, 7.70703, 3.82031]},
			"faces": {
				"north": {"uv": [5.75, 11, 5.75, 11], "texture": "#0"},
				"east": {"uv": [5.75, 11, 5.75, 11], "texture": "#0"},
				"south": {"uv": [5.75, 11, 5.75, 11], "texture": "#0"},
				"west": {"uv": [5.75, 11, 5.75, 11], "texture": "#0"},
				"up": {"uv": [5.75, 11, 5.75, 11], "texture": "#0"},
				"down": {"uv": [5.75, 11, 5.75, 11], "texture": "#0"}
			}
		},
		{
			"name": "hexadecagon",
			"from": [7.69388, 7.40078, 4.20703],
			"to": [7.83347, 8.06406, 4.3164],
			"rotation": {"angle": 0, "axis": "y", "origin": [7.74219, 7.70703, 3.8164]},
			"faces": {
				"north": {"uv": [5.75, 11.75, 5.75, 11.75], "texture": "#0"},
				"east": {"uv": [5.75, 11.75, 5.75, 11.75], "texture": "#0"},
				"south": {"uv": [5.75, 11.75, 5.75, 11.75], "texture": "#0"},
				"west": {"uv": [5.75, 11.75, 5.75, 11.75], "texture": "#0"},
				"up": {"uv": [5.75, 11.75, 5.75, 11.75], "texture": "#0"},
				"down": {"uv": [5.75, 11.75, 5.75, 11.75], "texture": "#0"}
			}
		},
		{
			"name": "hexadecagon",
			"from": [7.82278, 8.04531, 4.01953],
			"to": [7.89206, 8.11484, 4.3164],
			"rotation": {"angle": 0, "axis": "y", "origin": [7.80469, 7.70703, 3.8164]},
			"faces": {
				"north": {"uv": [5.75, 11.75, 5.75, 11.75], "texture": "#0"},
				"east": {"uv": [5.75, 11.75, 5.75, 11.75], "texture": "#0"},
				"south": {"uv": [5.75, 11.75, 5.75, 11.75], "texture": "#0"},
				"west": {"uv": [5.75, 11.75, 5.75, 11.75], "texture": "#0"},
				"up": {"uv": [5.75, 11.75, 5.75, 11.75], "texture": "#0"},
				"down": {"uv": [5.75, 11.75, 5.75, 11.75], "texture": "#0"}
			}
		},
		{
			"name": "hexadecagon",
			"from": [7.90677, 7.78359, 3.38672],
			"to": [8.09323, 7.93516, 4.11328],
			"rotation": {"angle": 0, "axis": "y", "origin": [7.9668, 7.70703, 3.61328]},
			"faces": {
				"north": {"uv": [5.75, 11.75, 5.75, 11.75], "texture": "#0"},
				"east": {"uv": [5.75, 11.75, 5.75, 11.75], "texture": "#0"},
				"south": {"uv": [5.75, 11.75, 5.75, 11.75], "texture": "#0"},
				"west": {"uv": [5.75, 11.75, 5.75, 11.75], "texture": "#0"},
				"up": {"uv": [5.75, 11.75, 5.75, 11.75], "texture": "#0"},
				"down": {"uv": [5.75, 11.75, 5.75, 11.75], "texture": "#0"}
			}
		},
		{
			"name": "hexadecagon",
			"from": [7.94192, 7.93594, 3.44922],
			"to": [8.05808, 8.03672, 4.08203],
			"rotation": {"angle": 0, "axis": "y", "origin": [7.93164, 7.85937, 3.61328]},
			"faces": {
				"north": {"uv": [5.75, 11.75, 5.75, 11.75], "texture": "#0"},
				"east": {"uv": [5.75, 11.75, 5.75, 11.75], "texture": "#0"},
				"south": {"uv": [5.75, 11.75, 5.75, 11.75], "texture": "#0"},
				"west": {"uv": [5.75, 11.75, 5.75, 11.75], "texture": "#0"},
				"up": {"uv": [5.75, 11.75, 5.75, 11.75], "texture": "#0"},
				"down": {"uv": [5.75, 11.75, 5.75, 11.75], "texture": "#0"}
			}
		},
		{
			"name": "hexadecagon",
			"from": [7.88333, 8.0375, 3.66015],
			"to": [8.11667, 8.31406, 4.08203],
			"rotation": {"angle": 0, "axis": "y", "origin": [7.99023, 7.96094, 3.61328]},
			"faces": {
				"north": {"uv": [5.75, 11.75, 5.75, 11.75], "texture": "#0"},
				"east": {"uv": [5.75, 11.75, 5.75, 11.75], "texture": "#0"},
				"south": {"uv": [5.75, 11.75, 5.75, 11.75], "texture": "#0"},
				"west": {"uv": [5.75, 11.75, 5.75, 11.75], "texture": "#0"},
				"up": {"uv": [5.75, 11.75, 5.75, 11.75], "texture": "#0"},
				"down": {"uv": [5.75, 11.75, 5.75, 11.75], "texture": "#0"}
			}
		},
		{
			"name": "hexadecagon",
			"from": [7.90677, 7.74844, 3.30469],
			"to": [8.09323, 7.9, 3.46484],
			"rotation": {"angle": -45, "axis": "x", "origin": [8, 7.82422, 3.38476]},
			"faces": {
				"north": {"uv": [5.75, 11.75, 5.75, 11.75], "texture": "#0"},
				"east": {"uv": [5.75, 11.75, 5.75, 11.75], "texture": "#0"},
				"south": {"uv": [5.75, 11.75, 5.75, 11.75], "texture": "#0"},
				"west": {"uv": [5.75, 11.75, 5.75, 11.75], "texture": "#0"},
				"up": {"uv": [5.75, 11.75, 5.75, 11.75], "texture": "#0"},
				"down": {"uv": [5.75, 11.75, 5.75, 11.75], "texture": "#0"}
			}
		},
		{
			"name": "hexadecagon",
			"from": [7.97931, 8.06787, 4.08203],
			"to": [8.02069, 8.27587, 4.3164],
			"rotation": {"angle": -45, "axis": "z", "origin": [8, 8.17187, 3.73047]},
			"faces": {
				"north": {"uv": [5.75, 11.75, 5.75, 11.75], "texture": "#0"},
				"east": {"uv": [5.75, 11.75, 5.75, 11.75], "texture": "#0"},
				"south": {"uv": [5.75, 11.75, 5.75, 11.75], "texture": "#0"},
				"west": {"uv": [5.75, 11.75, 5.75, 11.75], "texture": "#0"},
				"up": {"uv": [5.75, 11.75, 5.75, 11.75], "texture": "#0"},
				"down": {"uv": [5.75, 11.75, 5.75, 11.75], "texture": "#0"}
			}
		},
		{
			"name": "hexadecagon",
			"from": [7.97931, 8.06787, 4.08203],
			"to": [8.02069, 8.27587, 4.3164],
			"rotation": {"angle": -22.5, "axis": "z", "origin": [8, 8.17187, 3.73047]},
			"faces": {
				"north": {"uv": [5.75, 11.75, 5.75, 11.75], "texture": "#0"},
				"east": {"uv": [5.75, 11.75, 5.75, 11.75], "texture": "#0"},
				"south": {"uv": [5.75, 11.75, 5.75, 11.75], "texture": "#0"},
				"west": {"uv": [5.75, 11.75, 5.75, 11.75], "texture": "#0"},
				"up": {"uv": [5.75, 11.75, 5.75, 11.75], "texture": "#0"},
				"down": {"uv": [5.75, 11.75, 5.75, 11.75], "texture": "#0"}
			}
		},
		{
			"name": "hexadecagon",
			"from": [7.97931, 8.06787, 4.08203],
			"to": [8.02069, 8.27587, 4.3164],
			"rotation": {"angle": 0, "axis": "y", "origin": [8, 8.17187, 3.73047]},
			"faces": {
				"north": {"uv": [5.75, 11.75, 5.75, 11.75], "texture": "#0"},
				"east": {"uv": [5.75, 11.75, 5.75, 11.75], "texture": "#0"},
				"south": {"uv": [5.75, 11.75, 5.75, 11.75], "texture": "#0"},
				"west": {"uv": [5.75, 11.75, 5.75, 11.75], "texture": "#0"},
				"up": {"uv": [5.75, 11.75, 5.75, 11.75], "texture": "#0"},
				"down": {"uv": [5.75, 11.75, 5.75, 11.75], "texture": "#0"}
			}
		},
		{
			"name": "hexadecagon",
			"from": [7.97931, 8.06787, 4.08203],
			"to": [8.02069, 8.27587, 4.3164],
			"rotation": {"angle": 22.5, "axis": "z", "origin": [8, 8.17187, 3.73047]},
			"faces": {
				"north": {"uv": [5.75, 11.75, 5.75, 11.75], "texture": "#0"},
				"east": {"uv": [5.75, 11.75, 5.75, 11.75], "texture": "#0"},
				"south": {"uv": [5.75, 11.75, 5.75, 11.75], "texture": "#0"},
				"west": {"uv": [5.75, 11.75, 5.75, 11.75], "texture": "#0"},
				"up": {"uv": [5.75, 11.75, 5.75, 11.75], "texture": "#0"},
				"down": {"uv": [5.75, 11.75, 5.75, 11.75], "texture": "#0"}
			}
		},
		{
			"name": "hexadecagon",
			"from": [7.97931, 8.06787, 4.08203],
			"to": [8.02069, 8.27587, 4.3164],
			"rotation": {"angle": 45, "axis": "z", "origin": [8, 8.17187, 3.73047]},
			"faces": {
				"north": {"uv": [5.75, 11.75, 5.75, 11.75], "texture": "#0"},
				"east": {"uv": [5.75, 11.75, 5.75, 11.75], "texture": "#0"},
				"south": {"uv": [5.75, 11.75, 5.75, 11.75], "texture": "#0"},
				"west": {"uv": [5.75, 11.75, 5.75, 11.75], "texture": "#0"},
				"up": {"uv": [5.75, 11.75, 5.75, 11.75], "texture": "#0"},
				"down": {"uv": [5.75, 11.75, 5.75, 11.75], "texture": "#0"}
			}
		},
		{
			"name": "hexadecagon",
			"from": [7.896, 8.15119, 4.08203],
			"to": [8.104, 8.19256, 4.3164],
			"rotation": {"angle": -22.5, "axis": "z", "origin": [8, 8.17187, 3.73047]},
			"faces": {
				"north": {"uv": [5.75, 11.75, 5.75, 11.75], "texture": "#0"},
				"east": {"uv": [5.75, 11.75, 5.75, 11.75], "texture": "#0"},
				"south": {"uv": [5.75, 11.75, 5.75, 11.75], "texture": "#0"},
				"west": {"uv": [5.75, 11.75, 5.75, 11.75], "texture": "#0"},
				"up": {"uv": [5.75, 11.75, 5.75, 11.75], "texture": "#0"},
				"down": {"uv": [5.75, 11.75, 5.75, 11.75], "texture": "#0"}
			}
		},
		{
			"name": "hexadecagon",
			"from": [7.896, 8.15119, 4.08203],
			"to": [8.104, 8.19256, 4.3164],
			"rotation": {"angle": 0, "axis": "y", "origin": [8, 8.17187, 3.73047]},
			"faces": {
				"north": {"uv": [5.75, 11.75, 5.75, 11.75], "texture": "#0"},
				"east": {"uv": [5.75, 11.75, 5.75, 11.75], "texture": "#0"},
				"south": {"uv": [5.75, 11.75, 5.75, 11.75], "texture": "#0"},
				"west": {"uv": [5.75, 11.75, 5.75, 11.75], "texture": "#0"},
				"up": {"uv": [5.75, 11.75, 5.75, 11.75], "texture": "#0"},
				"down": {"uv": [5.75, 11.75, 5.75, 11.75], "texture": "#0"}
			}
		},
		{
			"name": "hexadecagon",
			"from": [7.896, 8.15119, 4.08203],
			"to": [8.104, 8.19256, 4.3164],
			"rotation": {"angle": 22.5, "axis": "z", "origin": [8, 8.17187, 3.73047]},
			"faces": {
				"north": {"uv": [5.75, 11.75, 5.75, 11.75], "texture": "#0"},
				"east": {"uv": [5.75, 11.75, 5.75, 11.75], "texture": "#0"},
				"south": {"uv": [5.75, 11.75, 5.75, 11.75], "texture": "#0"},
				"west": {"uv": [5.75, 11.75, 5.75, 11.75], "texture": "#0"},
				"up": {"uv": [5.75, 11.75, 5.75, 11.75], "texture": "#0"},
				"down": {"uv": [5.75, 11.75, 5.75, 11.75], "texture": "#0"}
			}
		}
	],
	"groups": [
		{
			"name": "short_front_carbon_fibre",
			"origin": [8, 7.54531, 10.85625],
			"color": 0,
			"children": [
				{
					"name": "group",
					"origin": [8.33281, 7.14453, 5.05156],
					"color": 1,
					"children": [0, 1, 2, 3]
				},
				{
					"name": "group",
					"origin": [8.37498, 7.90327, 5.05156],
					"color": 0,
					"children": [4, 5, 6, 7, 8, 9, 10]
				},
				{
					"name": "group",
					"origin": [8, 7.54531, 5.05156],
					"color": 1,
					"children": [11]
				},
				{
					"name": "group",
					"origin": [8, 7.54531, 5.05156],
					"color": 1,
					"children": [12, 13, 14, 15, 16]
				},
				{
					"name": "group",
					"origin": [8, 7.54531, 5.05156],
					"color": 1,
					"children": [17, 18, 19, 20, 21]
				},
				{
					"name": "group",
					"origin": [7.94141, 8.41875, 10.85625],
					"color": 0,
					"children": [22, 23, 24, 25, 26, 27, 28, 29, 30, 31, 32, 33, 34, 35, 36, 37, 38, 39]
				},
				{
					"name": "hexadecagon",
					"origin": [8, 8, 8],
					"color": 0,
					"children": [40, 41, 42, 43, 44, 45, 46, 47]
				},
				{
					"name": "group",
					"origin": [8, 7.70703, 1.82031],
					"color": 0,
					"children": [48, 49, 50, 51, 52, 53,
						{
							"name": "hexadecagon",
							"origin": [8, 8, 8],
							"color": 0,
							"children": [54, 55, 56, 57, 58, 59, 60, 61]
						}
					]
				}
			]
		}
	]
}